<?xml version="1.0" encoding="utf-8"?>
<!-- Generator: Adobe Illustrator 21.1.0, SVG Export Plug-In . SVG Version: 6.00 Build 0)  -->
<svg version="1.1" id="Ebene_1" xmlns="http://www.w3.org/2000/svg" xmlns:xlink="http://www.w3.org/1999/xlink" x="0px" y="0px"
	 viewBox="0 0 141.7 141.7" style="enable-background:new 0 0 141.7 141.7;" xml:space="preserve">
<style type="text/css">
	.st0{fill:#008E39;}
	.st1{fill:#FAB334;}
	.st2{fill:#1B9A4D;}
</style>
<g>
	<g>
		<g>
			<g>
				<g>
					<path class="st0" d="M145.8,193.6C145.8,193.6,145.7,193.6,145.8,193.6L145.8,193.6z"/>
					<path class="st0" d="M172.9,216.9C172.9,216.9,172.9,217,172.9,216.9c0.1,0.1,0.2,0.1,0.3,0.2L172.9,216.9z"/>
					<path class="st0" d="M171.3,226.6C171.3,226.6,171.3,226.6,171.3,226.6C171.4,226.6,171.4,226.7,171.3,226.6z"/>
					<path class="st0" d="M172,198.1c0-0.1,0-0.1,0-0.1C172,198,172,198,172,198.1z"/>
					<path class="st0" d="M131.9,201.7C131.9,201.7,131.9,201.6,131.9,201.7C131.9,201.6,131.9,201.6,131.9,201.7L131.9,201.7z"/>
					<path class="st0" d="M132,201.4c0.2,0,0,0.1,0,0.2c0.3,0,0.4-0.1,0.6-0.3C132.4,201.2,132.1,201.5,132,201.4z"/>
					<path class="st0" d="M120.9,228.1L120.9,228.1C120.8,228.1,120.9,228.1,120.9,228.1z"/>
					<path class="st0" d="M164.4,198l0-0.1C164.4,197.9,164.4,197.9,164.4,198z"/>
					<path class="st0" d="M120.8,223.9l-0.2,0C120.7,223.9,120.8,223.9,120.8,223.9z"/>
					<path class="st0" d="M173.1,217.1L173.1,217.1C173.2,217.1,173.2,217.1,173.1,217.1z"/>
					<path class="st0" d="M166,234.7c-0.1-0.1-0.1-0.1-0.2-0.1c0,0,0,0,0,0L166,234.7z"/>
					<path class="st0" d="M126.1,240.3C126.1,240.3,126.1,240.4,126.1,240.3l0.2-0.1C126.2,240.2,126.1,240.3,126.1,240.3z"/>
					<path class="st0" d="M155.3,239.8C155.3,239.8,155.3,239.9,155.3,239.8c0.2,0.1,0.7-0.1,1.3-0.3l-0.1-0.3L155.3,239.8z"/>
					<path class="st0" d="M142.5,235.8c0.4,0.2,0.8,0.3,1.1,0.5c-3.4,0.7-5.1,0.2-8,0.8l0.2-0.1c-0.4-0.2-0.7,1.3-5.6-0.4l0-0.1
						c-0.2,0-0.2,0.1-0.5,0l0.8,0.4c-0.5,0.1-1,0.4-1.6,0.4c-0.1-0.1-0.2-0.2-0.2-0.3l-1.7,0l-0.5-0.4c-0.5,0.2-0.3,1-1.7,0.5
						c0.5,0.6-0.7,0.3-0.5,0.6c-0.1-0.1-0.2-0.2-0.3-0.3c-0.8,0-2.4,0.1-2.8,0.4c0,0,3.2,1.4,4,2c-1.2-0.2-0.3,0.1-0.1,0.3l0.1-0.1
						c0.7,0.2,0.7,0.5,1,0.7c0,0,0-0.1,0-0.1l0,0c0-0.1,0-0.1,0-0.1c0-0.1,0-0.1,0.2-0.1l0,0c0.3,0,0.8,0,1,0.1l0,0.3
						c0.5-0.5,3.5,1,4.2,1c0.7,0.4,1.6-0.1,2.5,0.1c1.4,0.1,0.7,0.4,1.4,0.7c0.9,0.2-0.2-0.3,0.2-0.4c0.4,0.1,0.7,0.3,1.1,0.4
						c-0.6,0.1-0.3,0.2-0.2,0.3c0.9,0,2.4,0.5,2.7-0.1c1.3,0.2,1.3,0.4,1.8,0.4c-0.2-0.1-0.6-0.2-0.6-0.3c0.5,0.2,0.2-0.1,0-0.1
						c0.7-0.3,4.1,0.7,4.2,0l0,0.1c0.1-0.5-0.2-0.9,0.2-1.3l0.4,0.2l0.5-0.3c0.4,0.1,0.2,0.3,0.2,0.3c0.8-0.3,2.1-0.4,3.2-0.5
						l-1.4-1.1c0.9,0.2,2.7,0.3,2.7-0.1l0.6,0.3c2,0.3,1.1-0.7,1.9-0.7l1,0.2l-0.9,0.3c1,0,1.4,0,2.2,0l0,0c-0.1,0-0.1,0-0.1,0
						l0.1-0.1c0-0.3,0.4-0.6,1-0.8c0.9-0.3,1.4-0.9,2.9-1.1l0.1-0.6l1.1-0.3l0.2,0.3c-1,0.6-2.7,1.6-4,2.2l0,0.2
						c0.8-0.3,1.6-0.9,2.1-1.1c0.3,0,1.1,0,0.8,0.5c0.1-0.2,0.2-0.4,0.3-0.6c2.5-1.5,2.5-1.4,5.2-2.9l-0.3,0c0.4-0.5,0.8-1,1.2-0.9
						c1.5-1.2,3-2.8,4.2-3.8l-0.3-0.5c0.3-0.4,1.2-0.7,0.7-1.1c0.1-0.3,0.1-0.6,0.2-0.9c0.2-0.5,0.1-1,0.6-1.5l0,0l0,0
						c0,0,0.1-0.1,0.1-0.1c0,0,0,0,0,0c0.5-1.2-0.4-0.1,0.2-1.5c0.4-0.4-0.5-0.6-0.3-1.3l0.8-0.6c0.5-1.2-0.1-1.5-0.1-3.2
						c0.3-0.8,0.8-1.2,1.3-0.7c-0.6-0.8-0.4-0.4-0.7-1.3c0.3-0.2,0.3-0.1,0.5,0.2c0.3-0.9-0.2-0.5-0.2-1.2c-0.5-0.2-1.3-0.4-1.3-0.6
						l-0.1,0.3c-0.3-0.7-0.4-1.4-0.3-2.1l0.2,0l-0.2-0.8l0.3-0.1l-0.2-1.1l-0.1,0.2c-0.1-0.3-0.2-1.1-0.1-1.6l0.2,0
						c0.5-1.4-0.3-2.5-0.3-4.1l0.4,0.2c0.3-0.5-0.5-0.1-0.4-0.8l0.4,0c-0.6-0.6,0.1-0.7,0.4-1.1l-0.6,0.2l0.1-0.7
						c0.2-0.8,0.7-0.5,1-0.3l-0.4-0.6l0.5-0.1c-0.6-0.4,0.1-0.4-0.2-1.1c0.2,0,0.3,0.1,0.4-0.1l-0.6-1.2l0.3,0.7l-0.7-0.1
						c-0.5-0.8,0.2-1,0-1.5l0.2,0.4c-0.1-0.9,0.2-0.9,0.4-1.3c-0.2,0.1-0.4,0.3-0.4,0c0-0.3,0.3-0.1,0.4-0.3
						c-0.5-0.1-0.7-0.8-0.4-1.3c0.1,0,0.1,0,0.2,0.1c-0.1-0.1-0.2-0.2,0-0.5l0.5,0.2l-0.4-0.5c0.2-0.5,0-1.3,0.3-1.3l0.1,0.3
						c0.3-1.5,0.6-2.9,1-4.4l0.5-0.3c-0.3-0.1-0.1-0.7,0.1-1.3c0.2-0.6,0.3-1.1-0.1-0.7c0.4-0.6,0.5-1.4,0.6-2.1
						c0.1-0.7,0.3-1.2,0.8-1.4c0.3-1.2,0.4-2,0.5-2.7c-0.4,0.1-0.8,0.3-1.2,0.5c-0.4,0.2-0.9,0.3-1.3,0.5c-0.9,0.3-1.7,0.6-2.7,0.7
						c-0.7-0.5-4.6,0.8-6.7,1.4c-1.1,0.4-2,0.8-2.9,1.1c-0.5,0.2-1,0.5-1.5,0.7c-1,0.4-1.9,0.9-3.1,1.4c-1.8-0.4-3.6,1.6-5.4,1.7
						l-0.3,0.5c-1.3-0.2-2.6,1.2-4.3,1.3c-0.3,0.3-0.5,0.4-0.5,0.5c0.1,0,0.2,0,0.3,0.2c-0.5,0-1.2,0.6-1.4,0.1l0.1-0.1
						c-0.1-0.5-1.2,0.8-1.8,0.6l0.5,0.4l-0.8,0.3l0.2-0.2c-1.4,1.4-2.7,1.8-4,2.4c-1.3,0.5-2.5,1-3.7,2.4c0.1-0.7-0.4,0.6-0.8,0.1
						c-1.2-0.2-1.3,1-1.8,1.6c0,0,0,0.1,0,0.1l-1.1,0.7c0.2-1.1-0.4,1.1-0.2,0.1c-0.8,0.3-1.6,0.8-2.3,1.4c-0.8,0.5-1.6,1.1-2.4,1.8
						c-1.6,1.4-3.2,3.1-4.6,5.2l0.3-0.1c-0.7,1-1,2.5-1.5,3.3c-0.6,0.8,0.1,2,0.1,2.3c0.2,1-0.5,1.7-0.5,1.3c0,1,0.7,1.9,0.4,3.1
						c-0.7,0.5,0.8,3.3,0.1,3.3l0.1,0c-0.4,1.5,0.6,2.8,0.1,4.3c0,0-0.1,0-0.1-0.1c0.8,1,1.5,2,2.1,3.2c0.9-0.2,1.8-0.4,2.7-0.6
						c0.8-1,1.5-2,2.2-3.1c-0.2-2.9-0.7-5.4-0.8-7.7c0.2-1.8,0.7-3.3,1.4-4.4c0.3-0.7,0.6-1.3,1.1-2c0.5-0.7,1.2-1.4,2-2.1
						c0.8-0.7,1.7-1.4,2.7-2.1c0.9-0.7,1.9-1.4,2.8-2l0.5-1c2.9-0.6,5.4-3.3,8.5-4l-0.2-0.5c0.8-0.4,0.8-0.1,1.1-0.1
						c3.6-1.7,7.3-3.4,11.1-4.8c0.9-0.3,1.9-0.7,2.8-1c0.5-0.2,0.9-0.3,1.4-0.5c0.4-0.1,0.8-0.3,1.3-0.4c0.3-0.1,0.6-0.1,0.7-0.1
						c0.2,0,0.3,0,0.4,0.1c-0.1,0.3,0,0.2,0,0.3c-0.1,0.1-0.1,0.2-0.3,0.3c0.4-0.3,0.5-0.2,0.5-0.1c0,0.1,0,0.2,0,0.3l0,0.2
						c0,0.3-0.1,0.6-0.1,0.8l0-0.1l-0.1,1.2c0,0-0.1,0-0.1,0c0.3,1.4-0.4,3.5-0.6,5.2l0-0.1c-0.2,2.4-0.1,4.8,0,7.2
						c0.2,2.4,0.5,4.6,0.6,6.7c0.2,2.1,0.2,4.1-0.1,5.8c-0.3,1.8-0.9,3.3-2,4.4c-1.1,0.9-2.3,2.1-4,3.3c-1.7,1.1-3.6,2.3-5.7,2.7
						c-0.4-0.1-2.7,0.7-5,1.3C145.3,235.1,142.8,235.6,142.5,235.8z"/>
					<path class="st0" d="M128.6,236.9L128.6,236.9C128.7,236.7,128.6,236.7,128.6,236.9z"/>
					<polygon class="st0" points="149.2,241.1 149.2,241.1 149.5,241.3 					"/>
					<path class="st0" d="M135.9,242.8c0.6,0.1,0.6,0,0.5-0.1C136.2,242.7,136,242.7,135.9,242.8z"/>
					<path class="st0" d="M123.9,237.1c-0.3,0-0.2,0.1,0,0.2c0.3,0,0.5,0,0.5,0C124.2,237.3,124.1,237.1,123.9,237.1z"/>
					<path class="st0" d="M125,240l-0.1,0.2C125.1,240.1,125.1,240.1,125,240z"/>
				</g>
			</g>
		</g>
	</g>
</g>
<g>
	<g>
		<g>
			<g>
				<g>
					<path class="st0" d="M125.7,238.3C125.6,238.3,125.7,238.4,125.7,238.3L125.7,238.3z"/>
					<path class="st0" d="M137.5,224.3C137.5,224.3,137.5,224.3,137.5,224.3c-0.1-0.1-0.1-0.2-0.2-0.2L137.5,224.3z"/>
					<path class="st0" d="M139.9,222.6C139.9,222.6,139.9,222.6,139.9,222.6C139.9,222.6,139.8,222.5,139.9,222.6z"/>
					<path class="st0" d="M133.6,229.8C133.6,229.8,133.6,229.9,133.6,229.8C133.6,229.9,133.6,229.8,133.6,229.8z"/>
					<path class="st0" d="M122.6,243C122.6,243,122.6,243,122.6,243C122.6,243,122.6,243,122.6,243L122.6,243z"/>
					<path class="st0" d="M122.5,242.9c0.1,0,0.1,0.1,0.1,0.1c0.2,0,0.2,0,0.2-0.1C122.7,242.8,122.6,242.9,122.5,242.9z"/>
					<path class="st0" d="M117.6,251.9L117.6,251.9C117.5,251.8,117.6,251.8,117.6,251.9z"/>
					<path class="st0" d="M139.3,234.8C139.3,234.8,139.3,234.8,139.3,234.8C139.4,234.8,139.4,234.8,139.3,234.8z"/>
					<path class="st0" d="M118.5,250.5l-0.2-0.1C118.3,250.4,118.4,250.5,118.5,250.5z"/>
					<path class="st0" d="M137.4,224.1L137.4,224.1C137.3,224,137.3,224.1,137.4,224.1z"/>
					<path class="st0" d="M141.7,220.7c0.1,0,0.1,0.1,0.2,0.1l0,0L141.7,220.7z"/>
					<path class="st0" d="M152.6,212.1L152.6,212.1L152.6,212.1C152.7,212.2,152.7,212.2,152.6,212.1z"/>
					<path class="st0" d="M144.8,218.6C144.8,218.6,144.8,218.6,144.8,218.6c-0.2-0.1-0.3,0.1-0.4,0.2l0.2,0.2L144.8,218.6z"/>
					<path class="st0" d="M152.9,219.5l-0.7,0c0.6-1.2,1.4-1.4,1.6-2.7l0.1,0.1c0.2-0.1-0.9-0.8,1.5-1.6l0.1,0
						c0-0.1-0.1-0.1,0.1-0.2l-0.5,0.1c0-0.2-0.2-0.5-0.1-0.8c0.1,0,0.2,0,0.3,0.1l0.2-0.6l0.4,0c-0.1-0.3-0.9-0.6-0.2-0.8
						c-0.6-0.1-0.2-0.4-0.5-0.5c0.1,0,0.2,0,0.3,0c0.1-0.3,0.2-0.9,0-1.1c0,0-1.6,0.5-2.3,0.4c0.3-0.3,0-0.1-0.2-0.2l0.1,0.1
						c-0.2,0.1-0.6,0-0.7,0c0,0,0.1,0,0.1,0l0,0c0.1,0,0.1,0,0.1,0.1c0.1,0,0.1,0.1,0.1,0.1l0,0c0,0.1-0.1,0.2-0.2,0.3l-0.3-0.1
						c0.4,0.4-1.3,0.6-1.5,0.8c-0.5,0-0.2,0.5-0.5,0.6c-0.3,0.3-0.5,0-0.8,0c-0.3,0.1,0.3,0.1,0.3,0.3l-0.5,0.1
						c0.1-0.2-0.1-0.2-0.2-0.2c-0.2,0.2-0.9,0.3-0.5,0.7c-0.5,0.2-0.7,0-0.8,0.2c0.1,0,0.3,0,0.4,0c-0.3,0,0,0.1,0.1,0.1
						c0.1,0.4-1.7,0.4-1.1,0.8l-0.1-0.1c0.4,0.3,0.8,0.5,0.9,0.8l-0.2,0l0.1,0.3c-0.2,0-0.3-0.1-0.3-0.2c0,0.4-0.4,0.5-0.7,0.8
						l1.3,0.5c-0.4,0.1-1.2,0.1-0.9,0.4l-0.5-0.1c-1.1-0.1,0,0.6-0.3,0.6l-0.6-0.1l0.2-0.2c-0.4,0.1-0.6,0.1-1,0.1l0,0
						c0,0,0.1,0,0.1,0l0,0c0.2,0.2,0.2,0.4,0.1,0.6c-0.2,0.2-0.1,0.6-0.8,0.6l0.3,0.4l-0.5,0.1l-0.3-0.3c0.2-0.3,0.5-0.9,0.8-1.2
						l-0.1-0.1c-0.2,0.2-0.2,0.5-0.3,0.7c-0.1,0-0.6-0.1-0.7-0.4l0.2,0.4c-0.5,0.7-0.5,0.7-1.4,1.1l0.2,0.1c0,0.2-0.1,0.4-0.3,0.3
						c-0.4,0.4-1,0.6-1.6,0.6l0.3,0.4c-0.1,0.1-0.7-0.3-0.3,0.2l0,0.3c-0.1,0.1,0,0.3-0.3,0.3l0,0l0,0c0,0,0,0-0.1,0l0,0
						c-0.4,0.1,0.3,0.3-0.2,0.4c-0.3-0.1,0.3,0.5,0.1,0.6l-0.6-0.3c-0.5,0-0.1,0.5-0.4,0.9c-0.3,0-0.9-0.3-1.1-0.7
						c0.3,0.6,0.2,0.3,0.2,0.8c-0.2-0.1-0.2-0.2-0.4-0.4c-0.4,0,0.1,0.3-0.1,0.4c0.3,0.4,0.8,0.9,0.8,1l0.2,0c0,0.3,0,0.6-0.4,0.6
						l-0.2-0.2l-0.1,0.3l-0.2-0.2l-0.2,0.4l0.1,0c0,0.1-0.2,0.4-0.4,0.4l-0.1-0.1c-0.7,0-0.5,0.8-0.8,1.2l-0.2-0.3
						c-0.4-0.1,0.4,0.4,0.1,0.5l-0.3-0.3c0.3,0.5-0.3,0.1-0.5,0.1l0.5,0.3l-0.3,0.1c-0.3,0.1-0.6-0.4-0.8-0.6l0.2,0.4l-0.4-0.3
						c0.3,0.5-0.2,0-0.1,0.4c-0.2-0.1-0.2-0.2-0.3-0.2l0.2,0.8l-0.1-0.4l0.5,0.5c0.2,0.6-0.3,0.2-0.3,0.5l-0.1-0.2
						c-0.1,0.3-0.3,0.1-0.6,0.2c0.1,0.1,0.3,0.1,0.3,0.3c0,0.1-0.2-0.1-0.3-0.1c0.3,0.3,0.4,0.7,0.1,0.7c0,0-0.1-0.1-0.1-0.1
						c0,0.1,0.1,0.2-0.1,0.2l-0.4-0.4l0.3,0.5c-0.2,0,0,0.4-0.3,0.1l0-0.1l-0.7,0.5l-0.3-0.3c0.4,0.5-0.5,0.2,0.1,0.7
						c-0.4-0.2-0.2,0.7-0.8,0c-0.4,0.4-0.1,1.1-0.8,1.4c-0.7-0.3-1,0.4-1.3,0.6c-0.4,0.9-0.6,1.4-1,2.3c-1.1-0.2-0.6,1.2-1.5,1.3
						l0.2,0.4c-0.7-0.1-0.5,0.8-1.4,0.9c0,0.2,0,0.3,0,0.3c0,0,0.1,0,0.3,0.2c-0.2,0-0.3,0.4-0.6,0.1l0-0.1
						c-0.4-0.3-0.1,0.5-0.6,0.4l0.5,0.3l-0.3,0.2l0-0.1c0.1,1.7-1.6,1.2-1.5,2.8c-0.4-0.5,0.1,0.4-0.4,0c-0.8-0.2-0.2,0.6-0.2,0.9
						c0,0,0.1,0,0.1,0.1l-0.3,0.3c-0.5-0.7,0.3,0.6-0.1,0.1c-1.2,0.6-1.5,2.2-2.5,3.2l0.2,0.1c-0.2,0.3-0.2,0.8-0.6,0.8
						c-0.4,0,0.1,0.8,0.1,0.9c0.2,0.4-0.6,0.3-0.5,0.2c-0.1,0.3,0.4,0.9-0.1,1.1c-0.7-0.2,0,1.3-0.7,1l0.1,0
						c-0.7,0.2-0.2,1.1-0.9,1.4c0,0,0,0-0.1-0.1c0.5,0.7,1,1.4,1.5,2.1l2.5,0.8c0.8,0,1.5,0.1,2.3,0.1c0.3-0.8,0.5-1.6,0.8-2.4
						l1.7-1.2c0.4-0.7,0.8-1.4,1.2-2.1c0.4-0.7,0.8-1.4,1.3-2l-0.2-0.6c1.4-0.1,1.2-1.8,2.5-2.2l-0.4-0.3c0.2-0.2,0.4,0,0.5,0
						c1.6-2.2,3.1-4.8,5.3-6.2c0.4,0,0.8-0.6,1.2-0.5c0.1-1,0.7-1.7,1.3-2.2l0,0.1l0.2-0.4c0,0,0.1,0.1,0.1,0.1
						c0-0.6,0.8-0.8,1.3-1.1l0,0.1c2.3-2.3,3.6-5.1,6.3-7.1c1.6-0.6,1.9-2.7,3.5-3.7C151.1,223.1,152.9,219.9,152.9,219.5z"/>
					<path class="st0" d="M155.3,214.7L155.3,214.7C155.4,214.8,155.4,214.7,155.3,214.7z"/>
					<polygon class="st0" points="146.5,217.4 146.5,217.4 146.2,217.3 					"/>
					<path class="st0" d="M148.9,213.7c-0.2,0.1-0.1,0.2,0,0.2C148.9,213.9,148.9,213.8,148.9,213.7z"/>
					<path class="st0" d="M155.8,212.9c0.1-0.1-0.1-0.1-0.2-0.1c0,0.1-0.1,0.2-0.1,0.2C155.6,213,155.7,213,155.8,212.9z"/>
					<path class="st0" d="M153.1,211.9l-0.1-0.1C152.9,211.9,153,211.9,153.1,211.9z"/>
				</g>
			</g>
		</g>
	</g>
</g>
<g>
	<path class="st1" d="M64.1,35.2C64.1,35.2,64.1,35.2,64.1,35.2c0-0.1,0.1-0.2,0.1-0.3L64.1,35.2z"/>
	<path class="st1" d="M68.8,36.1C68.8,36.1,68.8,36.1,68.8,36.1C68.8,36.1,68.8,36,68.8,36.1z"/>
	<path class="st1" d="M35.2,57.8C35.2,57.8,35.2,57.8,35.2,57.8C35.1,57.8,35.1,57.8,35.2,57.8L35.2,57.8z"/>
	<path class="st1" d="M35.2,57.8c0.2-0.1,0.2-0.2,0.2-0.3c-0.2-0.1-0.2,0.2-0.4,0.2C35.1,57.6,35.2,57.7,35.2,57.8z"/>
	<path class="st1" d="M73,36.8c0,0.1,0,0.2,0,0.2c0,0,0,0,0,0L73,36.8z"/>
	<path class="st1" d="M78.2,39.3C78.3,39.3,78.3,39.3,78.2,39.3c0-0.2-0.3-0.3-0.6-0.4l-0.1,0.3L78.2,39.3z"/>
	<path class="st1" d="M34.3,73.1c1,0.5,2,0.9,3,1.3c1-0.3,2-0.6,3-0.9c0.8-0.6,1.5-1.1,2.3-1.6l-0.4-1.6c-0.1-0.5-0.2-1.1-0.3-1.6
		c0.3-0.9,0.7-1.7,1.1-2.5c0.1-2.1,0.4-4.1,0.9-6.1l-0.5-0.6c0.8-0.4,1-1,1.2-1.7c0.2-0.7,0.4-1.4,1.1-1.7l-0.5-0.3
		c0.1-0.3,0.5-0.1,0.6-0.2c0.8-1.5,1.6-2.9,2.7-4.2c0.3-0.3,0.6-0.6,0.8-0.9c0.3-0.3,0.6-0.5,0.9-0.7c0.6-0.5,1.3-0.8,2.1-1
		c0.4,0.2,1.1-0.4,1.5-0.2c0.2-0.6,0.6-0.9,1.1-1.2c0.4-0.2,0.9-0.4,1.4-0.6l0,0.1l0.4-0.3c0,0,0.1,0.1,0.1,0.2
		c0.3-0.7,1.3-0.4,2-0.3l0,0.1c1.9-0.4,3.7-0.8,5.6-1.1c1.9-0.2,3.9-0.2,5.8,0.5c1.7,1.2,4.1,0.3,6.1,1.7c0.1,0.3,1.3,0.7,2.5,1
		c1.2,0.3,2.4,0.6,2.7,0.5l-0.3-0.9c1.7,0.3,2.2,1.2,3.9,1.2l-0.1,0.1c0.1,0.2,0.4-0.4,1.1,0c-0.3,0.2-0.1,0.6-0.1,0.9c0,0,0,0,0,0
		l-0.3,0.5c-0.2-0.5,0.1,0.5-0.1,0.1c-1,1.1-1.6,2.9-2.5,4.4l0.1,0c-0.2,0.4-0.3,0.9-0.6,1.1c-0.3,0.2-0.1,0.8-0.1,0.9
		c0,0.4-0.4,0.6-0.4,0.4c-0.1,0.4,0.1,0.9-0.3,1.3c-0.4,0-0.2,1.5-0.6,1.4l0,0c-0.5,0.6-0.2,1.4-0.7,2c0,0,0,0,0-0.1
		c0.2,0.6,0.6,1.2,0.9,1.7c0.1,0,0.1,0,0.2,0c0,0,0,0,0,0.1c0.8,0,2-0.3,3.4-0.6c0.5,0,1.1,0.1,1.3,0.1c0.4,0.1,0.7-0.2,1.1-0.3
		c0.6-0.1,0.4,0.1,0.7,0.2c0.4,0-0.1-0.1,0-0.2l0.5,0.1c-0.3,0.1-0.1,0.1,0,0.2c0.4-0.1,1.1,0,1.1-0.3c0.6,0,0.6,0.1,0.8,0
		c-0.1,0-0.3,0-0.3-0.1c0.2,0.1,0.1-0.1,0-0.1c0.3-0.2,1.8,0,1.8-0.3l0,0.1c0-0.3-0.2-0.5,0-0.6l0.2,0.1l0.2-0.2
		c0.2,0,0.1,0.1,0.1,0.1c0.3-0.2,0.9-0.2,1.3-0.3L93,61.5c0.4,0,1.2,0.2,1.2-0.1l0.3,0.2c0.9,0.2,0.5-0.3,0.8-0.3l0.4,0.1l-0.4,0.1
		c0.4,0,0.6,0.1,0.9,0.2l0,0c0,0,0,0,0,0l0,0c0-0.1,0.2-0.3,0.4-0.3c0.4,0,0.6-0.3,1.2-0.1l0.1-0.3l0.4,0.1l0,0.2
		c-0.3,0-0.5,0-0.8,0.1c-0.3,0.1-0.6,0.1-0.9,0.2l0,0.1c0.3-0.1,0.6-0.2,0.9-0.2c0.1,0,0.3,0.2,0.2,0.4l0.1-0.2c0.1,0,0.2,0,0.3,0
		c0.1,0,0.2,0,0.3,0c0.2,0,0.4,0,0.6,0c0.2,0,0.4,0,0.6,0c0.3,0,0.7-0.1,1.2-0.2l-0.2,0c0.4-0.2,0.7-0.4,0.8-0.4
		c1.1-0.6,1.7-1.9,2-2.7l-0.2-0.2c0-0.3,0.4-0.7,0-0.8c-0.1-0.2-0.1-0.4-0.2-0.5c0-0.3-0.2-0.4-0.2-0.7h0l0,0c0,0,0,0,0-0.1l0,0
		c-0.1-0.5-0.2,0-0.2-0.5c0.1-0.2-0.3-0.1-0.4-0.4l0.2-0.4c0-0.5-0.3-0.5-0.5-1.2c0-0.4,0.2-0.6,0.6-0.5c-0.4-0.2-0.2-0.1-0.5-0.4
		c0.1-0.1,0.1-0.1,0.3,0c0-0.4-0.2-0.2-0.3-0.4c-0.3,0-0.6,0-0.7-0.1l0,0.1c-0.2-0.2-0.4-0.5-0.3-0.9l0.1,0l-0.2-0.3l0.1-0.1
		l-0.2-0.5l0,0.1c-0.1-0.1-0.2-0.5-0.2-0.7l0.1,0c0.1-0.7-0.4-1.1-0.7-1.8l0.2,0c0.1-0.3-0.3,0-0.3-0.3l0.2-0.1
		c-0.3-0.2,0-0.3,0-0.6l-0.2,0.2l0-0.3c0-0.4,0.3-0.3,0.4-0.3l-0.3-0.2l0.2-0.1c-0.3-0.1,0-0.2-0.3-0.5c0.1-0.1,0.2,0,0.2-0.1
		l-0.5-0.4l0.2,0.3l-0.4,0.1c-0.4-0.2-0.1-0.5-0.3-0.7l0.2,0.1c-0.2-0.4-0.1-0.4-0.1-0.7c0,0.1-0.1,0.2-0.2,0.1
		c-0.1-0.1,0.1-0.1,0.1-0.2c-0.2,0-0.4-0.2-0.4-0.5c0,0,0.1,0,0.1,0c-0.1-0.1-0.1-0.1-0.1-0.2l0.3,0L99,43.7c0-0.2-0.2-0.3,0-0.3
		l0.1,0.1l-0.3-1.1l0.2-0.1c-0.3,0-0.1-0.6-0.4-0.5c0.1-0.1-0.1-0.5-0.2-0.7c-0.1-0.3-0.1-0.5,0.1-0.5c-0.2-0.7-0.5-1.1-0.8-1.4
		c-0.3-0.4-0.5-0.6-1-1.3c-0.2-0.7-1.4-1.2-2.3-1.1c-0.9,0.1-1.4,0.5-1.8,1c-0.2,0.3-0.4,0.7-0.6,1c-0.2,0.4-0.4,0.7-0.6,1.2
		c-0.2,0.2-0.4,0.5-0.6,0.8c-0.1,0.2-0.2,0.4-0.3,0.6c-0.1,0.4-0.3,0.8-0.6,1.1l0.1,0.3c-0.5,0.3-0.6,1.1-1.2,1.5c0,0.2,0,0.3,0,0.3
		c0,0,0.1,0,0.2,0c-0.1,0.1-0.2,0.3-0.3,0.4c-0.2-0.2-0.7,0-0.9-0.3c-0.6-0.4-0.1-0.6-0.3-1C87,43.2,87.2,44,87,43.9l-0.3-0.7
		c0.3,0.1,0.2-0.2,0.2-0.3c-0.4-0.2-0.8-1.1-1.2-0.5c-0.5-0.5-0.4-0.8-0.6-0.9c0,0.2,0.2,0.3,0.1,0.5c-0.1-0.4-0.1,0-0.1,0.1
		c-0.5,0.2-1.4-1.9-1.8-1.2l0-0.1c-0.3,0.5-0.3,1.1-0.7,1.3l-0.1-0.3L82.4,42c-0.1-0.2,0-0.4,0.1-0.4c-0.5,0.1-1-0.4-1.4-0.6l0,1.7
		c-0.3-0.5-0.8-1.4-1.1-1L79.8,41c-0.6-1.2-0.7,0.3-1-0.1l-0.3-0.7l0.4,0.1c-0.3-0.4-0.5-0.7-0.7-1.1l0,0c0,0,0,0.1,0,0.1l-0.1,0
		c-0.1,0.3-0.4,0.4-0.7,0.3c-0.4-0.2-0.9,0.1-1.4-0.6l-0.3,0.5l-0.4-0.5l0.1-0.5c0.5,0.2,1.5,0.2,2.2,0.4l0.1-0.2
		c-0.4-0.1-0.9,0-1.2-0.1c-0.1-0.1-0.3-0.7,0-0.9l-0.4,0.4c-1.4-0.3-1.4-0.2-2.7-1l0.1,0.3c-0.3,0.1-0.6,0.2-0.6-0.2
		c-0.9-0.2-1.7-0.7-2.2-1.3l-0.2,0.5c-0.2-0.1-0.4-0.9-0.6-0.2l-0.4,0.2c-0.3-0.1-0.4,0.2-0.7-0.1l0,0l0,0c0,0,0,0-0.1-0.1l0,0
		c-0.6-0.3,0,0.5-0.7,0.1c-0.2-0.4-0.3,0.7-0.6,0.6l-0.3-0.8c-0.6-0.5-0.7,0.3-1.6,0.3c-0.4-0.3-0.6-1-0.3-1.6
		c-0.4,0.7-0.2,0.5-0.7,0.8c-0.1-0.3,0-0.4,0.1-0.6c-0.5-0.4-0.3,0.3-0.6,0.3c-0.1,0.6-0.2,1.5-0.3,1.5L64,37
		c-0.3,0.3-0.7,0.5-1.1,0.2l0-0.3L62.4,37l-0.1-0.4l-0.6,0.2l0.1,0.1c-0.1,0.1-0.6,0.2-0.9,0.1l0-0.2c-0.9-0.5-1.4,0.4-2.3,0.6
		l0-0.4c-0.4-0.4,0,0.7-0.4,0.5L58.2,37c-0.2,0.7-0.4-0.1-0.7-0.3l0.2,0.6l-0.4,0c-0.5-0.1-0.5-0.8-0.5-1.1l-0.2,0.6l-0.2-0.6
		c-0.1,0.7-0.3-0.1-0.6,0.4c-0.1-0.2,0-0.4-0.2-0.4l-0.5,1l0.3-0.5l0.2,0.9c-0.2,0.8-0.6,0.1-0.8,0.4l0.1-0.3
		c-0.4,0.3-0.6,0-0.9-0.1c0.1,0.1,0.3,0.3,0.2,0.5c-0.1,0.1-0.2-0.3-0.3-0.3c0.1,0.6-0.1,1-0.5,0.8c0-0.1,0-0.2,0-0.2
		c0,0.1,0,0.3-0.2,0.2L53,37.8l-0.1,0.7c-0.2-0.1-0.3,0.4-0.5,0l0.1-0.2l-1.4,0.4l-0.2-0.5c0.1,0.7-0.8,0.1-0.4,0.9
		c-0.5-0.3-0.8,0.8-1.1-0.2c-0.9,0.4-0.9,1.4-2.2,1.7c-0.8-0.5-1.7,0.4-2.3,0.8c-1,1.2-1.6,2.1-2.4,3.3c-1.5-0.2-1.2,1.9-2.4,2.2
		l0.2,0.5c-1,0.1-0.8,1.4-1.9,1.7c0.1,0.3,0,0.4,0,0.5c0,0,0.1,0,0.4,0.1c-0.3,0.1-0.4,0.7-0.9,0.3l0-0.1c-0.5-0.3-0.2,0.8-0.8,0.8
		l0.6,0.2l-0.3,0.4l0-0.2c0.1,1.3-0.4,1.8-0.8,2.4c-0.4,0.6-1,1.2-0.7,2.3c-0.6-0.5,0.2,0.5-0.5,0.2c-1.1,0.1-0.1,0.9,0,1.4
		c0,0,0.1,0,0.1,0.1l-0.3,0.6c-0.8-0.7,0.6,0.7-0.1,0.1c-1.2,1.5-1,4-1.6,6l0.3-0.1c-0.1,0.5,0.1,1.2-0.3,1.5
		c-0.4,0.4,0.6,0.9,0.6,1.1c0.4,0.4-0.5,0.8-0.4,0.6c0.1,0.5,1,0.9,0.6,1.5c-0.8,0.2,0.8,1.7-0.1,1.7l0.1,0
		c-0.6,0.9,0.5,1.5,0.1,2.4C34.4,73.1,34.4,73.1,34.3,73.1z"/>
	<polygon class="st1" points="80.9,40.9 81,40.9 80.9,40.5 	"/>
	<path class="st1" d="M87.2,42.9c-0.2-0.2-0.3-0.1-0.3,0C87,43,87.1,43,87.2,42.9z"/>
	<path class="st1" d="M102.2,52.2C102.2,52.2,102.2,52.2,102.2,52.2c0.1,0,0.1,0,0.1,0L102.2,52.2z"/>
	<path class="st1" d="M103.1,56C103.1,56,103.1,56,103.1,56C103.1,56,103.1,56,103.1,56z"/>
	<path class="st1" d="M85.4,50.7C85.4,50.7,85.4,50.7,85.4,50.7C85.4,50.7,85.4,50.7,85.4,50.7L85.4,50.7z"/>
	<path class="st1" d="M85.4,50.7c0.1,0,0.2-0.1,0.2-0.2C85.5,50.4,85.4,50.6,85.4,50.7C85.5,50.5,85.4,50.6,85.4,50.7z"/>
	<path class="st1" d="M101.7,61.1C101.7,61,101.6,61,101.7,61.1L101.7,61.1L101.7,61.1z"/>
	<path class="st1" d="M96.2,61.7C96.2,61.7,96.2,61.7,96.2,61.7c0.1,0.1,0.3,0,0.5,0l0-0.2L96.2,61.7z"/>
	<polygon class="st1" points="93.6,62 93.6,62 93.8,62.2 	"/>
	<path class="st1" d="M88.3,63.7c-0.1,0-0.2,0.1-0.2,0.1C88.4,63.7,88.4,63.7,88.3,63.7z"/>
	<path class="st1" d="M74.7,106.6C74.7,106.6,74.7,106.6,74.7,106.6c0,0.1-0.1,0.2-0.1,0.3L74.7,106.6z"/>
	<path class="st1" d="M70,105.7C70,105.7,70,105.7,70,105.7C70,105.8,70,105.9,70,105.7z"/>
	<path class="st1" d="M103.6,84C103.6,84,103.6,84.1,103.6,84C103.6,84.1,103.7,84,103.6,84L103.6,84z"/>
	<path class="st1" d="M103.6,84.1c-0.2,0.1-0.2,0.2-0.2,0.3c0.2,0.1,0.2-0.2,0.4-0.2C103.7,84.3,103.6,84.1,103.6,84.1z"/>
	<path class="st1" d="M65.8,105c0-0.1,0-0.2,0-0.2c0,0,0,0,0,0L65.8,105z"/>
	<path class="st1" d="M60.5,102.5C60.5,102.6,60.5,102.6,60.5,102.5c0,0.2,0.3,0.3,0.6,0.4l0.1-0.3L60.5,102.5z"/>
	<path class="st1" d="M104.6,75.1c-0.4-0.4,0.5-0.8,0.4-0.6c-0.1-0.5-1-0.9-0.6-1.5c0.8-0.2-0.8-1.7,0.1-1.7l-0.1,0
		c0.6-0.9-0.5-1.5-0.1-2.4c0,0,0.1,0,0.1,0c-1-0.5-2-0.9-3-1.3c-1,0.3-2,0.6-3,0.9c-0.8,0.6-1.5,1.1-2.3,1.6l0.4,1.6
		c0.1,0.5,0.2,1.1,0.3,1.6c-0.3,0.9-0.7,1.7-1.1,2.5c-0.1,2.1-0.4,4.1-0.9,6.1l0.5,0.6c-0.8,0.4-1,1-1.2,1.7
		c-0.2,0.7-0.4,1.4-1.1,1.7l0.5,0.3c-0.1,0.3-0.5,0.1-0.6,0.2c-0.8,1.5-1.6,2.9-2.7,4.2c-0.3,0.3-0.6,0.6-0.8,0.9
		c-0.3,0.3-0.6,0.5-0.9,0.7c-0.6,0.5-1.3,0.8-2.1,1c-0.4-0.2-1.1,0.4-1.5,0.2c-0.2,0.6-0.6,0.9-1.1,1.2c-0.4,0.2-0.9,0.4-1.4,0.6
		l0-0.1l-0.4,0.3c0,0-0.1-0.1-0.1-0.2c-0.3,0.7-1.3,0.4-2,0.3l0-0.1c-1.9,0.4-3.7,0.8-5.6,1.1c-1.9,0.2-3.9,0.2-5.8-0.5
		c-1.7-1.2-4.1-0.3-6.1-1.7c-0.1-0.3-1.3-0.7-2.5-1c-1.2-0.3-2.4-0.6-2.7-0.5l0.3,0.9c-1.7-0.3-2.2-1.2-3.9-1.2l0.1-0.1
		c-0.1-0.2-0.4,0.4-1.1,0c0.3-0.2,0.1-0.6,0.1-0.9c0,0,0,0,0,0l0.3-0.5c0.2,0.5-0.1-0.5,0.1-0.1c1-1.1,1.6-2.9,2.5-4.4l-0.1,0
		c0.2-0.4,0.3-0.9,0.6-1.1c0.3-0.2,0.1-0.8,0.1-0.9c0-0.4,0.4-0.6,0.4-0.4c0.1-0.4-0.1-0.9,0.3-1.3c0.4,0,0.2-1.5,0.6-1.4l0,0
		c0.5-0.6,0.2-1.4,0.7-2c0,0,0,0,0,0.1c-0.2-0.6-0.6-1.2-0.9-1.7c-0.1,0-0.1,0-0.2,0c0,0,0,0,0-0.1c-0.8,0-2,0.3-3.4,0.6
		c-0.5,0-1.1-0.1-1.3-0.1c-0.4-0.1-0.7,0.2-1.1,0.3c-0.6,0.1-0.4-0.1-0.7-0.2c-0.4,0,0.1,0.1,0,0.2l-0.5-0.1c0.3-0.1,0.1-0.1,0-0.2
		c-0.4,0.1-1.1,0-1.1,0.3c-0.6,0-0.6-0.1-0.8,0c0.1,0,0.3,0,0.3,0.1c-0.2-0.1-0.1,0.1,0,0.1c-0.3,0.2-1.8,0-1.8,0.3l0-0.1
		c0,0.3,0.2,0.5,0,0.6l-0.2-0.1l-0.2,0.2c-0.2,0-0.1-0.1-0.1-0.1c-0.3,0.2-0.9,0.2-1.3,0.3l0.7,0.5c-0.4,0-1.2-0.2-1.2,0.1l-0.3-0.2
		c-0.9-0.2-0.5,0.3-0.8,0.3l-0.4-0.1l0.4-0.1c-0.4,0-0.6-0.1-0.9-0.2l0,0c0,0,0,0,0,0l0,0c0,0.1-0.2,0.3-0.4,0.3
		c-0.4,0-0.6,0.3-1.2,0.1l-0.1,0.3l-0.4-0.1l0-0.2c0.3,0,0.5,0,0.8-0.1c0.3-0.1,0.6-0.1,0.9-0.2l0-0.1c-0.3,0.1-0.6,0.2-0.9,0.2
		c-0.1,0-0.3-0.2-0.2-0.4l-0.1,0.2c-0.1,0-0.2,0-0.3,0c-0.1,0-0.2,0-0.3,0c-0.2,0-0.4,0-0.6,0c-0.2,0-0.4,0-0.6,0
		c-0.3,0-0.7,0.1-1.2,0.2l0.2,0c-0.4,0.2-0.7,0.4-0.8,0.4c-1.1,0.6-1.7,1.9-2,2.7l0.2,0.2c0,0.3-0.4,0.7,0,0.8
		c0.1,0.2,0.1,0.4,0.2,0.5c0,0.3,0.2,0.4,0.2,0.7l0,0l0,0c0,0,0,0,0,0.1l0,0c0.1,0.5,0.2,0,0.2,0.5c-0.1,0.2,0.3,0.1,0.4,0.4
		l-0.2,0.4c0,0.5,0.3,0.5,0.5,1.2c0,0.4-0.2,0.6-0.6,0.5c0.4,0.2,0.2,0.1,0.5,0.4c-0.1,0.1-0.1,0.1-0.3,0c0,0.4,0.2,0.2,0.3,0.4
		c0.3,0,0.6,0,0.7,0.1l0-0.1c0.2,0.2,0.4,0.5,0.3,0.9l-0.1,0l0.2,0.3l-0.1,0.1l0.2,0.5l0-0.1c0.1,0.1,0.2,0.5,0.2,0.7l-0.1,0
		c-0.1,0.7,0.4,1.1,0.7,1.8l-0.2,0c-0.1,0.3,0.3,0,0.3,0.3l-0.2,0.1c0.3,0.2,0,0.3,0,0.6l0.2-0.2l0,0.3c0,0.4-0.3,0.3-0.4,0.3
		l0.3,0.2l-0.2,0.1c0.3,0.1,0,0.2,0.3,0.5c-0.1,0.1-0.2,0-0.2,0.1l0.5,0.4l-0.2-0.3l0.4-0.1c0.4,0.2,0.1,0.5,0.3,0.7l-0.2-0.1
		c0.2,0.4,0.1,0.4,0.1,0.7c0-0.1,0.1-0.2,0.2-0.1c0.1,0.1-0.1,0.1-0.1,0.2c0.2,0,0.4,0.2,0.4,0.5c0,0-0.1,0-0.1,0
		c0.1,0.1,0.1,0.1,0.1,0.2l-0.3,0l0.3,0.1c0,0.2,0.2,0.3,0,0.3l-0.1-0.1l0.3,1.1l-0.2,0.1c0.3,0,0.1,0.6,0.4,0.5
		c-0.1,0.1,0.1,0.5,0.2,0.7c0.1,0.3,0.1,0.5-0.1,0.5c0.2,0.7,0.5,1.1,0.8,1.4c0.3,0.4,0.5,0.6,1,1.3c0.2,0.7,1.4,1.2,2.3,1.1
		c0.9-0.1,1.4-0.5,1.8-1c0.2-0.3,0.4-0.7,0.6-1c0.2-0.4,0.4-0.7,0.6-1.2c0.2-0.2,0.4-0.5,0.6-0.8c0.1-0.2,0.2-0.4,0.3-0.6
		c0.1-0.4,0.3-0.8,0.6-1.1l-0.1-0.3c0.5-0.3,0.6-1.1,1.2-1.5c0-0.2,0-0.3,0-0.3c0,0-0.1,0-0.2,0c0.1-0.1,0.2-0.3,0.3-0.4
		c0.2,0.2,0.7,0,0.9,0.3c0.6,0.4,0.1,0.6,0.3,1c0.3,0.4,0.1-0.4,0.2-0.4l0.3,0.7c-0.3-0.1-0.2,0.2-0.2,0.3c0.4,0.2,0.8,1.1,1.2,0.5
		c0.5,0.5,0.4,0.8,0.6,0.9c0-0.2-0.2-0.3-0.1-0.5c0.1,0.4,0.1,0,0.1-0.1c0.5-0.2,1.4,1.9,1.8,1.2l0,0.1c0.3-0.5,0.3-1.1,0.7-1.3
		l0.1,0.3l0.3-0.2c0.1,0.2,0,0.4-0.1,0.4c0.5-0.1,1,0.4,1.4,0.6l0-1.7c0.3,0.5,0.8,1.4,1.1,1l0.1,0.6c0.6,1.2,0.7-0.3,1,0.1l0.3,0.7
		l-0.4-0.1c0.3,0.4,0.5,0.7,0.7,1.1l0,0c0,0,0-0.1,0-0.1l0.1,0c0.1-0.3,0.4-0.4,0.7-0.3c0.4,0.2,0.9-0.1,1.4,0.6l0.3-0.5l0.4,0.5
		l-0.1,0.5c-0.5-0.2-1.5-0.2-2.2-0.4l-0.1,0.2c0.4,0.1,0.9,0,1.2,0.1c0.1,0.1,0.3,0.7,0,0.9l0.4-0.4c1.4,0.3,1.4,0.2,2.7,1l-0.1-0.3
		c0.3-0.1,0.6-0.2,0.6,0.2c0.9,0.2,1.7,0.7,2.2,1.3l0.2-0.5c0.2,0.1,0.4,0.9,0.6,0.2l0.4-0.2c0.3,0.1,0.4-0.2,0.7,0.1v0l0,0
		c0,0,0,0,0.1,0.1l0,0c0.6,0.3,0-0.5,0.7-0.1c0.2,0.4,0.3-0.7,0.6-0.6l0.3,0.8c0.6,0.5,0.7-0.3,1.6-0.3c0.4,0.3,0.6,1,0.3,1.6
		c0.4-0.7,0.2-0.5,0.7-0.8c0.1,0.3,0,0.4-0.1,0.6c0.5,0.4,0.3-0.3,0.6-0.3c0.1-0.6,0.2-1.5,0.3-1.5l-0.1-0.2
		c0.3-0.3,0.7-0.5,1.1-0.2l0,0.3l0.4-0.2l0.1,0.4l0.6-0.2l-0.1-0.1c0.1-0.1,0.6-0.2,0.9-0.1l0,0.2c0.9,0.5,1.4-0.4,2.3-0.6l0,0.4
		c0.4,0.4,0-0.7,0.4-0.5l0.1,0.5c0.2-0.7,0.4,0.1,0.7,0.3l-0.2-0.6l0.4,0c0.5,0.1,0.5,0.8,0.5,1.1l0.2-0.6l0.2,0.6
		c0.1-0.7,0.3,0.1,0.6-0.4c0.1,0.2,0,0.4,0.2,0.4l0.5-1l-0.3,0.5l-0.2-0.9c0.2-0.8,0.6-0.1,0.8-0.4l-0.1,0.3c0.4-0.3,0.6,0,0.9,0.1
		c-0.1-0.1-0.3-0.3-0.2-0.5c0.1-0.1,0.2,0.3,0.3,0.3c-0.1-0.6,0.1-1,0.5-0.8c0,0.1,0,0.2,0,0.2c0-0.1,0-0.3,0.2-0.2l0.1,0.6l0.1-0.7
		c0.2,0.1,0.3-0.4,0.5,0l-0.1,0.2l1.4-0.4l0.2,0.5c-0.1-0.7,0.8-0.1,0.4-0.9c0.5,0.3,0.8-0.8,1.1,0.2c0.9-0.4,0.9-1.4,2.2-1.7
		c0.8,0.5,1.7-0.4,2.3-0.8c1-1.2,1.6-2.1,2.4-3.3c1.5,0.2,1.2-1.9,2.4-2.2l-0.2-0.5c1-0.1,0.8-1.4,1.9-1.7c-0.1-0.3,0-0.4,0-0.5
		c0,0-0.1,0-0.4-0.1c0.3-0.1,0.4-0.7,0.9-0.3l0,0.1c0.5,0.3,0.2-0.8,0.8-0.8l-0.6-0.2l0.3-0.4l0,0.2c-0.1-1.3,0.4-1.8,0.8-2.4
		c0.4-0.6,1-1.2,0.7-2.3c0.6,0.5-0.2-0.5,0.5-0.2c1.1-0.1,0.1-0.9,0-1.4c0,0-0.1,0-0.1-0.1l0.3-0.6c0.8,0.7-0.6-0.7,0.1-0.1
		c1.2-1.5,1-4,1.6-6l-0.3,0.1c0.1-0.5-0.1-1.2,0.3-1.5C105.7,75.7,104.6,75.2,104.6,75.1z"/>
	<polygon class="st1" points="57.9,101 57.8,101 57.8,101.3 	"/>
	<path class="st1" d="M51.5,98.9c0.2,0.2,0.3,0.1,0.3,0C51.7,98.9,51.6,98.9,51.5,98.9z"/>
	<path class="st1" d="M36.6,89.7C36.6,89.6,36.6,89.6,36.6,89.7c-0.1,0-0.1,0-0.1,0L36.6,89.7z"/>
	<path class="st1" d="M35.7,85.9C35.7,85.9,35.7,85.9,35.7,85.9C35.7,85.9,35.7,85.9,35.7,85.9z"/>
	<path class="st1" d="M53.4,91.2C53.4,91.2,53.4,91.2,53.4,91.2C53.4,91.2,53.4,91.2,53.4,91.2L53.4,91.2z"/>
	<path class="st1" d="M53.4,91.2c-0.1,0-0.2,0.1-0.2,0.2C53.3,91.5,53.3,91.3,53.4,91.2C53.3,91.4,53.4,91.2,53.4,91.2z"/>
	<path class="st1" d="M37.1,80.8C37.1,80.8,37.1,80.9,37.1,80.8L37.1,80.8L37.1,80.8z"/>
	<path class="st1" d="M42.6,80.2C42.6,80.2,42.6,80.1,42.6,80.2c-0.1-0.1-0.3,0-0.5,0l0,0.2L42.6,80.2z"/>
	<polygon class="st1" points="45.1,79.8 45.2,79.8 45,79.7 	"/>
	<path class="st1" d="M50.5,78.2c0.1,0,0.2-0.1,0.2-0.1C50.4,78.1,50.4,78.2,50.5,78.2z"/>
</g>
<g>
	<path class="st2" d="M173.7,366.3c0.5-0.3-0.2-0.1-0.8-0.1L173.7,366.3z"/>
	<path class="st2" d="M172.9,366.2l-0.6-0.1C172.4,366.2,172.6,366.3,172.9,366.2z"/>
	<path class="st2" d="M167.5,366c1.2-0.3,2.7,0.1,3.5-0.3C169.7,365.5,167.8,365.6,167.5,366z"/>
	<polygon class="st2" points="169.3,366.3 169.5,366.1 168.4,366.4 	"/>
	<polygon class="st2" points="170.1,366.5 170,366.4 168.2,366.6 	"/>
	<path class="st2" d="M163.3,365.9l1.2-0.1c1.2,0.3-0.8,0.4,0,0.6c1.6,0,0.5-0.6,2.5-0.5c-0.2-0.3-3.1,0-2.8-0.4
		C162.6,365.3,164.1,365.7,163.3,365.9z"/>
	<path class="st2" d="M87.4,368.3c-0.1,0-0.2,0-0.2,0C87.2,368.3,87.3,368.3,87.4,368.3z"/>
	<path class="st2" d="M91.3,354.5c0.2-0.2,0.5-0.4,0.7-0.5c-0.1,0-0.2,0.1-0.3,0.2L91.3,354.5z"/>
	<path class="st2" d="M101.1,367.4c0.3,0,0.6,0.1,0.8,0.1C101.8,367.5,101.6,367.4,101.1,367.4z"/>
	<path class="st2" d="M118.5,303.3c0,0.1,0,0.1,0,0.2l0,0l0.1-0.3L118.5,303.3z"/>
	<path class="st2" d="M99,345.1C99,345.1,99,345.2,99,345.1C98.9,345.2,99,345.2,99,345.1z"/>
	<path class="st2" d="M108.6,367.4c-0.1,0-0.2,0-0.3,0C108.4,367.4,108.5,367.4,108.6,367.4L108.6,367.4L108.6,367.4z"/>
	<path class="st2" d="M86.2,358.9c0.2-0.2,0.4-0.3,0.6-0.5C86.5,358.6,86.3,358.8,86.2,358.9z"/>
	<path class="st2" d="M144.2,365.4c-0.4,0-0.6,0-0.9,0C143.5,365.5,143.8,365.5,144.2,365.4z"/>
	<path class="st2" d="M136.9,365.4L136.9,365.4C136.9,365.3,136.9,365.4,136.9,365.4z"/>
	<path class="st2" d="M132.2,365.4L132.2,365.4C132.2,365.3,132.2,365.3,132.2,365.4z"/>
	<path class="st2" d="M143.3,365.4c-0.6-0.2-0.8-0.7-1.6-0.1l0.2,0.1c-0.5-0.1-1.2,0.1-1.7,0.1c0.1,0.1,0.1,0.1,0.2,0.2
		c0.3,0,0.6,0,1.2,0.1C142.2,365.8,142.7,365.5,143.3,365.4z"/>
	<path class="st2" d="M87.6,368.2C87.6,368.3,88.4,368.2,87.6,368.2L87.6,368.2z"/>
	<path class="st2" d="M94.7,367.7l-0.6,0C94.3,367.7,94.5,367.7,94.7,367.7z"/>
	<path class="st2" d="M118.6,367.8l-0.1,0C118.4,367.9,118.5,367.9,118.6,367.8z"/>
	<path class="st2" d="M93.5,367.7l0.6,0C93.9,367.6,93.7,367.6,93.5,367.7z"/>
	<path class="st2" d="M111.4,367.5C111.4,367.5,111.3,367.5,111.4,367.5C111.3,367.5,111.4,367.5,111.4,367.5z"/>
	<path class="st2" d="M155.8,339.7c-0.1,0,0.3,0.1,0.5,0.1l0,0C155.8,339.6,155.8,339.6,155.8,339.7c-0.1-0.1,0,0-0.4-0.2
		c0,0,0.1,0.1,0.2,0.1l0.9,0.4C156.2,339.8,156,339.8,155.8,339.7z"/>
	<path class="st2" d="M122.9,299.2l-0.2,0.1c0.2,0,0.2,0.1,0.8-0.4c0.2-0.7-0.8-0.1-0.2-1.2c-0.1,0.2-0.3,0.4-0.6,0.7
		C123.2,298.1,123.1,298.7,122.9,299.2z"/>
	<path class="st2" d="M122.7,298.4L122.7,298.4c-0.1,0-0.2,0.1-0.2,0.1c-0.1,0.1-0.2,0.2-0.3,0.3
		C122.3,298.7,122.5,298.6,122.7,298.4z"/>
	<path class="st2" d="M150.2,334c-0.1-0.1-0.3-0.3-0.4-0.4C149.9,333.8,150,333.9,150.2,334z"/>
	<path class="st2" d="M106.9,340.2c0.4,0,0.9-0.1,1.3-0.1C107.6,340.1,107.2,340.1,106.9,340.2z"/>
	<path class="st2" d="M115.4,307.7c-0.1,0.1-0.3,0.3-0.4,0.4c-0.1,0.1-0.1,0.2-0.2,0.3L115.4,307.7z"/>
	<path class="st2" d="M140.3,302.7c-0.6,0,0.2,0.2,0.5,1l0.6,0.4C141.1,303.5,140.7,303.1,140.3,302.7z"/>
	<polygon class="st2" points="155.4,339.6 155.5,339.6 155.5,339.6 	"/>
	<path class="st2" d="M146.7,321.4c-0.5,0-1.2,0-1.2-0.1c0.1,0,0,0,0.2,0C146,321.4,146.3,321.4,146.7,321.4z"/>
	<path class="st2" d="M119.7,301.7l-1.8,2.2l0.6-0.6C118.6,302.8,119.6,302.1,119.7,301.7z"/>
	<path class="st2" d="M133,293l0.1-0.4c-0.4-0.2-1.6-1.7-2.5-2.8c-0.9-1.2-1.8-2.4-2.7-3.5c-1.7,2-3.5,4.1-4.4,5.9
		c-3,2.1-0.8,2.3-3.5,4.2l0.2,0c-2.9,3.4-5.9,6.8-8.9,10.3c-1.5,1.8-3,3.5-4.4,5.2c-2.7,3.2-5.3,6.4-7.9,9.6c2.5,0,5,0,7.5-0.1
		l0.9,0l-0.6,0l-1.3,0c0,0,0.6,0,0.8,0l-0.2,0.2l5,0.1l-3.2,0l-0.2,0.2l-0.8,0.8l-5.8,5.9c-5.4,5.6-10.9,11.2-16.3,16.7
		c4.7,0,9.5,0,14.3,0c0.1-0.2,0.2-0.6,0.6-0.8c0.1,0,0.5,0,0.2,0.2c-0.4,0.1-0.5,0.3-0.7,0.4c0.2,0,0.1,0.1,0.3,0.1c0,0,0,0,0.2,0
		l0.8-0.4c0.2,0-0.2,0.2-0.3,0.3c-0.3,0.1-0.9,0.3-1,0.3c0.6,0,0.2,0.2,0.1,0.2c-0.1,0-0.2,0-0.3,0c0,0-0.1,0-0.1,0s0,0-0.3,0.3
		c0.1,0.8-2,3.7-3.3,5.7l-1,0.7c1.1-1.1-0.4-0.3,1.1-1.7c-1.3,1.1-2.2,2.3-3.3,3.4c0.3-0.1,0.4,0.1,0,0.6c-0.7,0.6-1,0.5-1.8,1.2
		l0.6-0.9c-0.7,0.4-0.9,1-1.3,1.5c-0.3,0-1.5,1.1-1.5,0.7c-0.4,0.7-0.7,1-1,1.4c-0.4,0.4-0.7,0.9-1.4,1.7c2-1.7-0.2,0.7,0.2,0.6
		l1.5-1.7c-2,1.8,0.6-0.6,0.1-0.8c1-0.7-0.6,1.7,0.7,0.2c-1.3,1.7-2.5,2.6-4.5,5.2c1.3-1.5,0.1,0.3,1.1-0.5
		c-1.7,1.7-0.7,0.4-1.7,1.1c-1,1-1.9,1.6-2.2,2.3c-2,1.8-0.5,0-1.8,1.1c0.1-0.6,5.7-5.2,3.8-4.8c0.5-0.6,1-1.2,1.6-1.9
		c0.5-0.7,1.5-1.8,1.8-2.1c-0.3,0.2-1.4,1.2-2.4,2.1c-1,1-2.1,2-2.9,3l0.8,0c-1.3,1.3-0.8,1.4-1.8,2.3c0.2-0.4-1.2,0.6-2.1,1.7
		c0.5-0.4,0.8-0.8,0.9-0.7c-0.5,0.6-0.8,0.9-1.1,1.2c1.5-0.1,2.8-0.3,4.9-0.4c-1.6-0.1-2-0.2-2.9-0.4c0.3-0.2,0.7-0.5,1.1-0.9
		c0.3,0,0.1,0.2-0.3,0.6c0.3,0,0.7,0.1,1.3,0.1c-0.3,0.1-0.5,0.1-0.4,0.1l1.6-0.2c2.3,0.2-1.3,0.6,0.7,0.8c1.3,0.3,2.5-0.2,3.6,0
		c-0.1,0-0.1-0.1-0.2-0.1c0.3,0,0.5,0,0.6,0l0,0c0.8,0,1.5,0,2.2-0.1c0.5,0,0.8-0.1,1-0.2c0.1,0.1,0.9,0,1.2-0.1
		c0.6-0.1,1.9-0.5,2.8,0l-0.1,0c1.3,0.1,2.3,0.2,2,0.4l2.1,0.1l-0.2,0.4c1.9-0.1,1.7-0.3,3-0.7c1.3,0.2,3.7,0,4.6-0.1
		c0.1,0,0.4,0,0.7,0l-0.8-0.2c1.5,0,1.3-0.2,2.2-0.2c-0.2,0-0.2-0.1,0.3,0c0.2,0,0.3,0,0.6,0c0,0-0.3,0-0.5,0l0.2,0.1
		c1.2,0.4,1.8-0.2,3-0.1c-0.1,0-0.3,0-0.4,0c0.7,0.1,1.7,0.6,2,0.3c0.2,0,0.4,0,0.6-0.1l0.5,0.1c-0.2,0-0.4,0-0.5-0.1
		c0.3-0.1,0.6-0.2,0.7-0.2l1.8,0.1c0.3,0.1,0.8,0,1.2,0l0.3,0.2c0.7,0,0.7,0.1,0.6,0.1c2.3,0.6,3.5-0.3,5.9,0.2
		c0.5-0.3-0.5-0.4-0.6-0.5c0.4-0.2,1.8-0.4,2.5-0.5c1.1,0.4,4.4,0.7,3.9,1.2c2,0-0.6-0.3,0.4-0.5l0.2,0c-0.7-0.1-1.2-0.2-1.6-0.4
		c-0.2-0.3,1.6-0.4,2.2-0.3l-0.4,0.4c1.9-0.1,1.5-0.8,2.6-1.2c1.5,0.2,0.6,0.5,0.9,0.9l1.6-0.1v0.3c1-0.1,1.2-0.4,2.6-0.2
		c-1,0.3,2.1,0.3,0.7,0.7c0.8,0.1,1-0.5,1.4-0.1c0.5-0.3-0.7-0.2-1.1-0.3c-0.3-0.5,1.7-0.2,2.6-0.3c0.1,0.2-0.6,0.3,0.5,0.4
		c0.2-0.2,0.9-0.3,1.5-0.1c0-0.3,1.2-0.1,1.9,0c-0.7-0.1-1.7-0.3-1.3-0.5c0.5-0.1,1-0.2,2.3-0.1l-0.9-0.1c1.1-0.4,1.8,0.3,3.3,0.2
		c-0.6,0.2-1,0.2-1.6,0.4c0.7-0.1,2-0.4,3.1-0.5l1.2,0.4c0.2-0.2,1.4,0,1.4-0.3c1.5,0.2-1.2,0.4-1.4,0.6c1.9,0.2,1.6-0.5,3.4,0
		l-0.6,0.3c0.6,0,1.9-0.1,1.9,0c0-0.1-0.3-0.1-0.7-0.1c0.4-0.6,2.9-0.4,2.6-1.1l-0.9,0c1.3-0.1,2.3-0.5,3.3-0.3
		c0.8,0.2-0.5,0.4-1,0.6c1.2,0,1-0.7,2.5-0.6c-0.8-0.1-0.6-0.3-0.2-0.5c-0.9,0-2.6-0.2-2.3,0.1l0.3,0.1c-0.1,0.2-0.5,0.2-0.8,0.3
		c-1.2,0-0.5-0.3-0.8-0.4c-1.9-0.1-0.2,0.6-1.9,0.6l-0.2-0.1c-0.9,0.2-2.2,0.2-2.4,0.6c-0.8-0.4-2,0.2-2.9-0.1c-0.2-0.9,3,0.1,4-0.4
		c-0.9-0.2,0.5-0.4,0.9-0.6l-2.9,0.4c-0.2-0.1-1.1-0.6-1.6-0.2l0.2,0c-1.2,0.1-0.9,0.5-1.9,0.3c-0.2-0.1,0.2-0.2,0.2-0.3
		c-0.9-0.1-0.8,0.2-1.4,0.3c-0.9-0.1,0.5-0.4-0.3-0.5c-1.1,0.3-1.7-0.1-2.6-0.1c0.4,0.5-3.7,0.7-1.7,1.1l-2.2,0.3
		c-0.7-0.3,1.5-0.7,0.9-1.1l1.8,0c-0.3-0.6-3.7,0.4-4.9-0.3c-1,0-0.7,0.1-2.5-0.3l0.3,0.6c-0.9-0.1-1.2-0.4-1.3-0.5
		c-0.6,0-1,0-1.6,0c0.1-0.1,0.3-0.2,0.7-0.2c-0.7-0.3-0.9-0.2-1.2,0c-0.4,0.1-1,0.1-1.5,0.1l0.5-0.2c-0.4,0-0.8,0.1-0.8,0.2
		c-0.2,0-0.5,0-0.7,0c0.2,0.1,0.5,0.4,1.4,0.6c-2.2-0.2-3.9-0.1-5.7-0.6c0.1-0.2,0.8-0.4,0.6-0.4c-0.9-0.1-1.9,0.2-1.9,0.4
		c-0.2,0-0.4,0-0.5,0c-0.2-0.1-0.4-0.3-0.8-0.3c-0.1-0.1-0.3-0.1-0.6-0.1c-0.3,0.4-2.1,0.2-2.5,0.4c0.4,0,0.9,0,1.5,0
		c-0.8,0.3-1.4,0.6-2,0.4c1.4-0.3-1.5-0.5,0.6-0.6c-1.5-0.6-0.8,0.4-2.3,0.2l-1-0.2c0.2-0.3,1.6-0.2,1.4-0.3l-0.7,0
		c0.7-0.2,3.3-0.1,5-0.4l-3.3-0.2c-4.1,0.4-9.3-0.1-12.7,0.7l0.1,0c-0.1,0-0.1,0.1-0.1,0.2l-0.2-0.1l-0.7,0.2
		c-0.8-0.3-2.3-0.4-3.5-0.6c0.8,0.2,0.8,0.2,0.9,0.4c-0.2,0.3-0.3,0.5-1.4,0.3c0-0.2,0.7-0.2-0.2-0.4c0.4,0.1,0,0.3-0.5,0.3
		c-0.7-0.1-1.8-0.2-1.8-0.4c0.3-0.1,0.5,0,0.8,0.1c0.3-0.1-1.2-0.2-0.3-0.4l-1.2,0.1c-0.7-0.2,0.5-0.3,0.2-0.4c-2,0.2-3,0.7-4.8,0.8
		c0.1-0.1,0.1-0.6,0.1-0.5c-1.4-0.2-2.9,0.6-4.5,0.6c0.2-0.2,0.8-0.1,1.3-0.2c-0.9,0-1.8-0.1-2.7-0.1c-0.5,0-0.9-0.1-1.4-0.1
		c-0.8-0.1-1.5-0.1-1.9-0.3c0.4-0.3,0.9-0.7,1.3-1c-0.2,0-0.4-0.1-0.5-0.2c0.3-0.2,0.6-0.3,0.8-0.4c0.4-0.2,2.4-2.2,3.7-3.6
		c1.4-1.5,2.7-3.1,4.2-4.7c1-1,0.9-0.3,1.4-0.7c2.2-2.2,2.3-3.1,4.2-5.3c-0.1,0.4-0.4,1.3,0.7,0.2c0.2-0.4,0.1-0.7,1.1-1.6l-0.3,0.5
		c1.1-0.8,1.7-1.7,3.6-3.5c1.4-1.5,2.7-2.9,3.7-4.1c-2.6,0.2-5.1,0.4-7.1,0.7c-3.4-0.1,0.9-0.6,0.4-0.7c2.4,0.2,2-0.1,2.9-0.3
		c-1.7,0.2-3.5,0.2-4-0.1c-1.1,0-1.9,0-2.7,0c-0.8,0-1.8,0.1-1.7,0.2c0-0.1,1,0.1,0.2,0.2c-0.4-0.1-1.4,0-0.8-0.5
		c-0.4,0-0.7,0-1.1,0c2.1-2.1,4.3-4.4,6.5-6.6c0.6-0.9-0.6,0.5-0.3,0c0.8-1.3,1-0.7,1.6-1.8l-0.2,0.5c1.3-1.3,2.3-3,3.4-4.4
		c0,0.4,1.2-0.9,0.3,0.3c0.6-0.6,2.2-0.5,2.5-1.1l-1.6-0.2c-0.1-0.1,0.8-0.9,0.7-0.9c0.4-0.2,0.8-0.4,1.1-0.6c0.4-0.3,1-0.7,1.3-1
		c0.6-0.2-1.2,1.6-1.5,1.9c0.2,0.2,0.5,0,1.1-0.6c0.7-0.6,1.3-1.1,0.8-0.2c2-2.2-0.5,0.2,0.5-1.2l1.9-1.8l-1.5,1.3
		c1.3-1.5,1.1-1.9,3.4-3.8c0.3-0.6,0.6-1.1,0.8-1.6c0.8-0.4,1.3-1,1.9-1.7c-0.4,0-0.8,0-1.3,0l1.8-0.3c-2.8,0-3.7-0.1-5.5-0.2
		c2.1-0.4,2.6,0.1,3.8-0.3l-3.4-0.1c-0.2,0.2-2.4,0.4-0.2,0.6c-0.8,0.1-1.5,0.2-2.1,0.3c-0.3,0-0.6,0.1-1,0.1l-0.2,0
		c-0.1,0,0.2,0,0.3,0l0.8,0.1c0.9,0,0.1,0.1,0,0.1c-0.2,0-0.5,0-0.7,0.1c-0.5,0-1.1,0.1-1.8,0c-0.1-0.1-0.6-0.2-0.3-0.2
		c0.3,0,0.5-0.1,0.8-0.1c0.5-0.1,1.2-0.2,1.1-0.4c-0.7,0-0.8,0-3,0.1c-0.4,0-0.8,0-1.2,0.1c-0.3,0-0.2,0-0.2,0l0.1,0
		c0.1,0,0.2,0.1,0.3,0.2c0.3,0.2,0.1,0.5-0.1,0.6c0-0.1,0-0.1,0.1-0.2c1-1,0.4-0.8,1.3-1.9c0.1,0.3,0.9-0.6,1.2-0.6
		c0,0.2,0,0.3,0,0.4c0-0.1,0.1-0.2,0.2-0.3c0.1-0.1,0.3-0.2,0.3,0c-0.4-0.1,1.5-2.3,2.3-3.6l-0.4,0c0.6-0.9,1.5-2.3,2.3-3.2
		c1.1-1.4,0.6-1.3,1.2-2.6c0.7-0.4,0.9-0.1,1,0.3c-0.4,0.3-0.9,1-1.5,1.5c-1.2,1.9-1.9,3.7-3.4,5.3c0,1.2,0.9-1.2,1.8-1.9
		c0,0.1,0,0.1-0.1,0.2c0.1-0.1,0.1-0.1,0.2-0.2c-0.4,0.7-1.2,1.8-1,2.2c0.8-1.1,0.1-1.2,1.4-2.3c0.6-1.1,1.7-1.5,2.3-2
		c0.3-0.8-0.1-1.2,1.3-2.7l-0.2,1c1.5-1.8,0.2-1.2,1.6-2.9c-0.5,0.5,0.1-0.8-0.8,0.3c0.3-0.7,1.2-1.9,2.1-2.7
		c0.1-0.3-0.1-0.1-0.1-0.3c-1.1,0.8-1.1,1.8-2.1,2.3l-0.2,1c-0.9,0.8-1.3,0.7-0.9,0c-0.2,0.3-0.3,0.5-0.6,0.7
		c-0.7-0.3,1.1-1,0.9-1.6l-0.5,0.7c-0.6,0,1-1.8,1.7-2.6c1-0.8,1.7-1.6,2-1.5l-1,1.4c0.7-0.5,1.2-1.7,1.9-2.5c0.1,0,0.2-0.1,0.2-0.1
		c-0.1,0-0.1,0-0.1,0c0.1-0.1,0.3-0.3,0.4-0.3c0.6-0.6,1.2-1.7,1.8-2.3l-0.3-0.1l0.1,0.2c-0.5,0.6-1.3,1.3-1.1,0.7
		c1-1.5,1.6-1.4,2.1-1.6c0.1,0.6-1.1,1.3-1.6,2.1c0.7-0.1,1.2-1.3,2.6-2.5c-0.1,0.9-1.3,1.6-1.3,2.2c0.9-1,1.1-1.8,1.9-2.5
		c0.2,0.1-0.7,1.2-0.4,1.4l0.7-0.7c-1.5,1.9,0.7,0.1-0.4,1.6c0.6-0.4,0.8-1.6,1-1.3c-0.1-0.2-0.6-0.2-0.5-0.6l0.4-0.2
		c0.1,0.2,0,0.8,0.2,0.9c0-0.1,0-0.2,0.1-0.3c0-0.2-0.1-0.2-0.1-0.5c0.1,0,0.1-0.2,0.2-0.6c0.1-0.2,0.2-0.4,0.4-0.3
		c0.2,0.3,0.4,0.6,0.4,0.9c0.3,0,1.3,1.1,2,1.8c0.8,0.8,1.5,1.6,2.2,2.2c-1-0.8-0.4,0.3-0.1,1.1c-0.9-1.1-1.3-0.8-1.4-0.6
		c0.6,0.6,1.3,0.8,1.1,0.4c0.7,1.2,0.9,0.6,1.4,1.8c0.4,0.7-0.6,0-0.6,0.3c0.9,1.2,0.7,0,1.7,1.4c-0.1,0-0.2-0.1-0.2,0
		c0.5,0.8,1.3,1.4,1.6,1.4c0.1,1.1,1.7,2.1,1.2,2.3c1.5,1.6,0-0.4,0.5-0.2c0.8,0.6,1.6,2,1.9,2.5c-0.3-0.4-0.8-0.7-1-1.2l0,0.6
		c1.5,2.3,1.8,0.8,3.2,3.1c-1-0.9-0.5-0.2-1.2-0.5c0.3,0.3,1.5,2,1,0.8c0.6,0.8,1,1.4,1.3,2l1,0.9c0.3,0.3,0.4,0.2,0.6,0.3
		c0.4,0.6,0.3,0.9,0.1,1c0.3,0.2,0.5,0.5,0.7,0.7l-1.1-0.1l-0.1,0l0.3,0l0.6,0c0.7,0,0.1,0-0.1,0c-0.5,0-1.1,0-1.6,0.1l0.2,0
		c-4.5-0.1,2.9,0.5-2.6,0.5c0.3-0.2-0.9-0.3-2-0.4c-0.9-0.1-2-0.1-2.9-0.2c-1.4-0.1-2.7-0.1-3.8-0.1c2.7,2.5,5.1,4.4,7.3,6.8
		c-0.1,0-0.5-0.2-1.2-0.8c1.2,1.2,2.7,2.7,3.5,3.5c0.7,0.6,1.3,1.3,2.1,1.9l-0.1,0c2,2.4,4.3,4,6.8,6.2c-0.2-0.1-0.4-0.1-0.6-0.1
		c1.1,1.2,2.9,3,4,3.5c0.5,0.8,0.8,1,1.1,1.3c0.1,0,0.3,0.1,0.2,0.4c-0.1,0-0.1,0-0.2,0c-0.1,0.2,0,0.2,0,0.3
		c0.3,0.1,0.9,0.4,1.4,0.7c0.3,0.2,0.1,0.3-0.6,0.2c-0.9-0.7,0.3-0.2-0.7-0.7c0.2,0.1,0.2,0.3-0.1,0.1c-0.3-0.3-0.2-0.2-0.5-0.4
		c-0.1-0.1,0.1,0.1,0.3,0.3c0.2,0.2,0.2,0.4,0.2,0.4c0.1,0.1,0.2,0.2,0.3,0.2c0.1,0.2-0.2,0.2-0.4,0.2l-0.3,0l-1.1,0
		c-0.8,0-1.5,0-2.2,0c0.9,0,3.5,0.1,2.6,0.4c-3.3-0.1-3.9,0.5-5.3,0.8c-3.1-0.3,1-0.6,0.1-1c-0.7-0.2-2.6-0.5-1.4-0.7
		c-3.1-0.1-4.6,0.2-6.6,0.4l0.5,0.4l-0.4-0.2c3,2.7,6.7,5.2,8.4,7.1l-1-1.1c0.5,0.3,1.7,1.5,2.6,1.9c-0.1,0,0.2,0.4,0.4,0.8
		c0.2,0.3,0.2,0.5,0,0.4c1.2,0.1,3.9,2.9,5.1,3.1c0.3,0.5-0.2,0.4-0.5,0.4c-1-0.9-1.2-1.3-1.9-1.6c0.8,0.7,1.3,1.4,1.1,1.4
		c1.1,0.4,3.2,2.1,3.9,2.1c0.5,0.7,1,1.3,0.5,1.4c2.7,2.1-0.5-1.9,2.3,0.6c1.1,1.4-1.6-0.8,0.1,0.9l-0.4-0.3
		c0.7,1.9,1.4,0.3,2.8,1.7c-0.1,0.6-1.3-0.7-0.5,0.5c1.4,1.1,2.5,1.1,3.8,2.4l-0.4,0c0.9,0.8,2.5,2.3,3.4,3.1c0,0.1-0.1,0-0.3-0.1
		c1.5,1.6,0.8,0.4,1.9,1.8l0.5,0.2c-0.5-0.7-1.6-2-2.6-2.6c1,0.5-0.9-1.6-0.2-1.6l-0.3,0c-1.7-2.5-4.4-5.1-6.9-7.7
		c-2.1-1.2-2.8-2.8-4.9-4.2c-0.7,0.2-0.4-0.2-2.1-1.6c0.9,0.7,0.4-0.2-0.1-0.8c-0.4-0.2-0.8-0.5-1.2-0.8c0-0.2-0.7-1-1-1.4
		c-0.3-0.4-0.5-0.6-1-0.8c-0.2-0.5,0.4,0.1,0.6,0.1c0.2-0.2-0.7-0.3-0.5-0.4c0,0,0.1,0,0.2,0c-0.6-0.5-0.8-0.8-1-1.2
		c0.1,0,0.1,0,0.2,0c-1.3-0.6,0.4-0.2,0.4-0.4c0.2,0.2,0.8,0.2,1.1,0.3c0-0.1,0.1-0.3,0.2-0.4c0.6-0.4,0.3,0.3,2.7,0.1l-0.5-0.1
		c1.4-0.2,5.6,0.2,7.9,0.5c1-0.1,1.9-0.1,2.8-0.2c-11.1-9.6-11.9-12.5-19.3-19.1c-0.6-0.3,0.1,0.5-0.4,0.4c-0.8-0.7-0.9-0.8-1.6-1.5
		c0.5,0.7,0.5,0.5,0.3,0.5l1.1,0.9c0,0.1-0.1,0-0.1,0.1c0.4,0.3,0.9,0.6,1.3,1c-0.7-0.5-1.2-0.4-2-1.3c0.1,0,0.2,0.1,0.5,0.3
		c-0.7-0.7-0.9-0.6-1.3-1.2c-0.6-0.7-0.5-0.5-0.5-0.7c-0.8-0.9-0.8-0.9-1.1-1.4c-1.2-0.4-1.2-1.1-1.2-1.1c0.8,0.3,0.8,0.6,1.5,0.8
		c0.1-0.1,0.1-0.1,0.2-0.2l-0.5-0.1l-0.2-0.3l0.1,0c-0.3-0.1-0.6-0.2-0.4-0.2c0.1,0,0.2,0,0.3,0.1l-0.6-0.3c0.5,0.2,0.4,0.2,0.5,0.1
		c0.1,0,0.3,0.1,0.6,0.2c0.2,0,0.3,0,0.4,0l0.1-0.1c0,0,0.2,0-0.3-0.1l-0.8-0.1l-0.4,0c-0.2,0,0.2,0,0.3,0c0.6,0,1.2,0.1,1.9,0.2
		c-0.1,0-0.1-0.1,0-0.2c0.1,0,0.1-0.1,0.2-0.1l1-0.1c0.8,0,1.6-0.1,2.2-0.1c0.4,0,0.8,0,1.2,0c1,0.1,1.4,0.2,1,0.3l1.8-0.2
		c0.6,0.1,1.2,0.2,1.8,0.2c-1-1.6-2.8-3.6-4.7-6.2l0.3,0.2c-0.6-0.7-1.2-1.3-1.8-1.9l-0.9-1.1c-0.2-0.2-0.4-0.5-0.6-0.7l0.4,0
		c-0.8-1.3-1.2-0.5-2.1-1.9c-0.3,0.2,0.2,1.2,0.1,1.5c0-0.5-1-2-1-1.5c-1.1-1.2-0.7-0.9-0.7-1.1l-0.8-0.6c-0.7-0.9,0.1-0.6,0.5-0.4
		c-1-0.6-1.5-1.7-2.2-2.7l0.4,0.3l-1-1.3c-0.9-0.7-1.8-1.8-2.5-3l0.9,0.5c-0.4-0.9-0.4-0.3-0.6-0.4c-1.1-1.1-1.1-1.5-1.4-2.3
		C135.4,296.8,134.8,294.2,133,293z M118,367.6l-0.2-0.1C118.3,367.5,118.5,367.4,118,367.6z M104.6,367.5c1.6-0.2,1.1,0,1.2,0.2
		c-1.6-0.1-2.5,0-3.9-0.1c0.2,0.1,0.3,0.2,0.3,0.3c-0.6,0-1.1-0.1-1.3-0.4C101.7,367,105.3,367.8,104.6,367.5z M134.7,365.3
		l-0.2,0.1h0L134.7,365.3z M126.7,365.7c-0.1-0.1-0.3-0.2-0.6-0.2C126.3,365.6,126.5,365.7,126.7,365.7z M110.9,365.1
		c-0.4-0.2-1.2-0.1-1.8-0.1C109.3,365,109.9,365.1,110.9,365.1z M108.6,326.6c-0.3,0.4-0.8,1.2-0.1,0.7c0.2-0.4,0.9-0.7,1-1.2
		c0,0,0,0,0.1,0C109.1,326.3,108.7,326.5,108.6,326.6z M121.9,297.5c0.1,0.2,0,0.6,0.3,0.5l-0.1,0.1c0.1-0.1,0.2-0.1,0.2,0
		c0.3-0.3,0.6-0.6,0.7-0.8C122.6,296.9,123,296.2,121.9,297.5z"/>
	<path class="st2" d="M113.8,311.2c0.1-0.1,0.2-0.3,0.3-0.3C114,311,113.9,311.1,113.8,311.2z"/>
	<path class="st2" d="M122.9,297.4c0-0.1-0.3,0.3-0.7,0.6C122.3,298,122.5,297.8,122.9,297.4z"/>
	<path class="st2" d="M160.6,367.3l-0.5,0.1l0.9,0.2c1.6-0.2,1.6-0.5,2-0.8c-1.4,0.3-2.2,0.1-4,0.2L160.6,367.3z"/>
	<path class="st2" d="M159.8,365.3c-0.2-0.1-0.5-0.3-0.8-0.3l-0.2,0.2L159.8,365.3z"/>
	<path class="st2" d="M141.4,364.4l1.5,0.2C143.4,364.4,141.6,364.1,141.4,364.4z"/>
	<path class="st2" d="M148,367.6l0.8-0.2c-0.7-0.2-1.6-0.1-1.8,0.1C147.9,367.4,147.2,367.6,148,367.6z"/>
	<path class="st2" d="M137.4,364.4c-0.5,0.4-1.5-0.2-1.8,0.2C136.1,364.4,137.4,364.7,137.4,364.4z"/>
	<path class="st2" d="M138.5,367.8c0.5,0.3,1.2,0,2.2,0.1C139.9,368,138.8,367.6,138.5,367.8z"/>
	<path class="st2" d="M129.5,365.4c0.1-0.3,0.7-0.2,1.4-0.2c-0.2,0.1-0.4,0.2-0.7,0.2c1.2-0.2,1.2-0.2,2.2-0.3
		c-0.9-0.2-2.3-0.3-2.2-0.6C129.5,364.8,128.7,365.2,129.5,365.4z"/>
	<path class="st2" d="M136.2,367.9c0.8,0.1,1.2,0.3,2.2,0.3c-0.2-0.2-0.5-0.4-1.6-0.4l0.4-0.3C136.2,367.3,137.6,367.9,136.2,367.9z
		"/>
	<path class="st2" d="M125.3,364.7l0.5,0.1c1.1-0.2,2.5-0.1,3.1-0.5C127.5,364.3,125.9,364.5,125.3,364.7z"/>
	<path class="st2" d="M132.4,367.3l-0.1,0.4c1.1,0.1-0.1-0.1,0.3-0.2c0.3,0.1,0.8,0.1,1,0C132.4,367.6,133.5,367.2,132.4,367.3z"/>
	<path class="st2" d="M128.9,367.8l-1.4,0.2l1.1,0.5C130.2,368.3,128.6,368.2,128.9,367.8z"/>
	<path class="st2" d="M127.1,367.5l-0.2-0.1l-2.1,0.6C126.1,367.8,126.2,367.8,127.1,367.5z"/>
	<path class="st2" d="M101.8,364.7c-0.2,0.2,1,0.4,0.5,0.2C102.5,364.8,100.9,364.5,101.8,364.7z"/>
	<path class="st2" d="M106.8,368.1c-0.6-0.1-2.5,0.1-3.4,0.2C104.4,368.3,106.9,368.4,106.8,368.1z"/>
	<path class="st2" d="M103,368.4c0.1,0,0.2,0,0.3,0C103.2,368.4,103.1,368.4,103,368.4z"/>
	<path class="st2" d="M91.2,353.5c0.1-0.1,0.1-0.1,0.1-0.2C91.3,353.4,91.2,353.5,91.2,353.5z"/>
	<path class="st2" d="M90.6,354.2c-0.4,0.4-1.2,1.3-1.2,1.6c0.6-0.7,1.1-1.3,1.7-2.2C90.9,353.8,90.5,354.1,90.6,354.2z"/>
	<path class="st2" d="M96.5,348.4c-0.2,0.4-0.7,0.8-0.4,0.8C96.3,349.1,96.8,348.3,96.5,348.4z"/>
	<path class="st2" d="M116.9,320.2c1.2-1.1,1.7-1.7,0.9-1.3C116.7,320.1,117.6,319.4,116.9,320.2z"/>
	<polygon class="st2" points="118.9,317.7 119.4,317.5 120.5,316.6 	"/>
	<path class="st2" d="M113.5,315.9c0.1,0,0.3-0.1,0.5-0.1C113.6,315.8,113.3,315.9,113.5,315.9z"/>
	<path class="st2" d="M114.2,315.8c-0.1,0-0.1,0-0.2,0L114.2,315.8z"/>
	<path class="st2" d="M112.9,315.9l-0.3-0.1c0.3,0,0.8,0,1.2,0l0.6,0l-0.2,0C114.9,315.8,113.1,315.8,112.9,315.9z"/>
	<path class="st2" d="M111.7,315.9l0.7,0.4c1.4-0.2-1.1-0.2,0.5-0.6L111.7,315.9z"/>
	<path class="st2" d="M110.1,316c0.2,0,0.3,0,0.4,0c0,0-0.6,0,0.1-0.2c-0.1-0.1-0.3-0.1-0.6-0.1c-0.3,0-0.6,0.1-0.2-0.5
		c-1.3,1.1,0.9,0.4,0,1c0.6-0.4,0.4-0.1,0.5-0.1C110.2,316,110.1,316,110.1,316z"/>
	<path class="st2" d="M108.3,316.8c0.1-0.1,0.6-0.2,0.9-0.2c0-0.1,0-0.1-0.1-0.1c-0.1,0.1-0.3,0.2-0.5,0.4
		C108.4,316.9,108.2,316.9,108.3,316.8z"/>
	<path class="st2" d="M110.7,315.4c0.1,0,0.2,0,0.3,0l-0.1-0.1L110.7,315.4z"/>
	<path class="st2" d="M112.1,313.8l-0.3,0.8C111.9,314.4,112.7,313.4,112.1,313.8z"/>
	<path class="st2" d="M115.3,310.5c0.6-0.5,0.5-1.5-0.4-0.1l0.3-0.3C115.2,310.3,115.9,309.7,115.3,310.5z"/>
	<path class="st2" d="M121.3,301.8c-0.4,0.4-0.7,1-0.5,1l0.9-1.2L121.3,301.8z"/>
	<path class="st2" d="M119.9,301c-0.6,0.1-0.9,1.1-1.6,1.8C119.1,301.9,119,302.1,119.9,301z"/>
	<path class="st2" d="M122.8,300.8c-0.1,0.4-0.6,0.8-0.9,1.1C122.2,301.9,122.8,301.1,122.8,300.8z"/>
	<path class="st2" d="M124.2,298.9c0.4-0.3,0.1,0.2,0.4,0c0.8-0.7,1.5-1.6,1.7-2.1c-0.3,0.1-0.9,0.1-0.8-0.4c-1,1.4-0.9,2.5-1.9,2.8
		l-0.4,1.5C124.2,299.8,123.6,299.6,124.2,298.9z"/>
	<path class="st2" d="M121,300.7l0.7-0.5c-0.3,0,0.1-0.6,0.4-1C121.6,299.1,121.3,300.3,121,300.7z"/>
	<polygon class="st2" points="127.9,294.4 128.4,294.8 128.2,294.6 	"/>
	<path class="st2" d="M128.1,294.9l-0.1,0.2c0.1,0,0.3,0,0.4,0.1L128.1,294.9z"/>
	<path class="st2" d="M128.4,295.6l-0.1-0.2l-0.2-0.1C128.2,295.4,128.1,295.3,128.4,295.6z"/>
	<path class="st2" d="M130.8,298.8l-0.1-0.4c-0.3-0.3-0.8-1.2-0.9-1C130.1,297.6,130.7,298.4,130.8,298.8z"/>
	<path class="st2" d="M143.1,305.7c-0.3-0.2-0.3,0.1-0.3,0.3l0.6,0.2C143.3,306.1,143.1,305.9,143.1,305.7z"/>
	<path class="st2" d="M144.1,307.9l1.2,0.9c-1-1.3-1.3-1.3-2.3-2.4c0.3,0.6,1,1,1.4,1.7L144.1,307.9z"/>
	<path class="st2" d="M143.9,321.8c-0.4-0.1-0.3,0.1-0.9-0.3c0.8,0.5,1.1,0.9,1.6,1.4c-0.1-0.3,1,0.3,0.5-0.1
		c-0.4-0.4-0.5-0.3-0.7-0.5l0.3,0C144.6,321.9,144.1,322.2,143.9,321.8z"/>
	<path class="st2" d="M167.1,361.6c-0.2,0-0.1,0.2,0,0.4C167.9,362.7,166.9,361.5,167.1,361.6z"/>
</g>
</svg>
