<?xml version="1.0" encoding="UTF-8" standalone="no"?>
<!-- Generator: Adobe Illustrator 21.1.0, SVG Export Plug-In . SVG Version: 6.00 Build 0)  -->

<svg
   xmlns:dc="http://purl.org/dc/elements/1.1/"
   xmlns:cc="http://creativecommons.org/ns#"
   xmlns:rdf="http://www.w3.org/1999/02/22-rdf-syntax-ns#"
   xmlns:svg="http://www.w3.org/2000/svg"
   xmlns="http://www.w3.org/2000/svg"
   xmlns:sodipodi="http://sodipodi.sourceforge.net/DTD/sodipodi-0.dtd"
   xmlns:inkscape="http://www.inkscape.org/namespaces/inkscape"
   version="1.1"
   id="Ebene_1"
   x="0px"
   y="0px"
   viewBox="0 0 65.016191 64.790681"
   xml:space="preserve"
   sodipodi:docname="restabfall.svg"
   width="65.01619"
   height="64.79068"
   inkscape:version="0.92.4 5da689c313, 2019-01-14"><metadata
   id="metadata15788"><rdf:RDF><cc:Work
       rdf:about=""><dc:format>image/svg+xml</dc:format><dc:type
         rdf:resource="http://purl.org/dc/dcmitype/StillImage" /></cc:Work></rdf:RDF></metadata><defs
   id="defs15786" /><sodipodi:namedview
   pagecolor="#ffffff"
   bordercolor="#666666"
   borderopacity="1"
   objecttolerance="10"
   gridtolerance="10"
   guidetolerance="10"
   inkscape:pageopacity="0"
   inkscape:pageshadow="2"
   inkscape:window-width="1920"
   inkscape:window-height="1135"
   id="namedview15784"
   showgrid="false"
   inkscape:zoom="1.6654905"
   inkscape:cx="32.666185"
   inkscape:cy="-38.800844"
   inkscape:window-x="0"
   inkscape:window-y="0"
   inkscape:window-maximized="1"
   inkscape:current-layer="Ebene_1" />
<style
   type="text/css"
   id="style15211">
	.st0{fill:#008E39;}
	.st1{fill:#FAB334;}
	.st2{fill:#2072B9;}
	.st3{fill:#545352;}
	.st4{fill:#1B9A4D;}
</style>







<g
   id="g15625"
   transform="translate(-38.183814,-39.30932)">
	<path
   class="st3"
   d="m 75.6,103.7 c 0,0 0,0 0,0 -0.1,0.1 -0.2,0.2 -0.2,0.3 z"
   id="path15553"
   inkscape:connector-curvature="0"
   style="fill:#545352" />
	<path
   class="st3"
   d="m 64.6,102.9 c 0,0 0,0 0,0 0,0.1 0,0.1 0,0 z"
   id="path15555"
   inkscape:connector-curvature="0"
   style="fill:#545352" />
	<path
   class="st3"
   d="m 101.9,93.7 c 0,0.1 0,0.2 0,0.3 0.1,-0.2 0.1,-0.3 0,-0.3 z"
   id="path15557"
   inkscape:connector-curvature="0"
   style="fill:#545352" />
	<path
   class="st3"
   d="m 82.1,40.1 c 0,0 0,0 0,0 0,-0.1 -0.1,-0.1 0,0 z"
   id="path15559"
   inkscape:connector-curvature="0"
   style="fill:#545352" />
	<path
   class="st3"
   d="m 82.3,39.9 c 0.2,0.1 -0.1,0.2 -0.2,0.2 0.3,0.2 0.5,0.2 0.8,0.1 0,-0.2 -0.5,-0.2 -0.6,-0.3 z"
   id="path15561"
   inkscape:connector-curvature="0"
   style="fill:#545352" />
	<path
   class="st3"
   d="m 54.5,102.7 c 0,-0.1 0,-0.2 -0.1,-0.2 0,0 0,0 0,0 z"
   id="path15563"
   inkscape:connector-curvature="0"
   style="fill:#545352" />
	<path
   class="st3"
   d="m 40.5,58.1 0.2,0.2 c 0,-0.1 -0.1,-0.2 -0.1,-0.2 0,0 -0.1,0 -0.1,0 z"
   id="path15565"
   inkscape:connector-curvature="0"
   style="fill:#545352" />
	<path
   class="st3"
   d="m 39,96.8 c 0,0 -0.1,0 -0.1,0 0.1,0.4 0.5,1.3 1.3,2.2 l 0.3,-0.2 c -0.6,-0.6 -1.1,-1.3 -1.5,-2 z"
   id="path15567"
   inkscape:connector-curvature="0"
   style="fill:#545352" />
	<path
   class="st3"
   d="m 44.8,102.3 c -0.1,0 -0.2,0.1 -0.3,0.1 0.1,0 0.2,-0.1 0.3,-0.1 z"
   id="path15569"
   inkscape:connector-curvature="0"
   style="fill:#545352" />
	<path
   class="st3"
   d="m 102.9,84.3 c 0.1,-2.1 -0.9,-3.3 -0.4,-5.9 0.9,-0.9 0.6,-3.5 0.7,-5.1 -0.4,-3.3 -0.7,-5.4 -1,-8.7 1.2,-2 -0.4,-5 0.3,-7.2 L 102,56.8 c 0.8,-1.4 -0.2,-3.6 0.6,-5.6 -0.2,-0.5 -0.3,-0.8 -0.3,-0.9 0,0.1 -0.1,0.2 -0.4,0.3 0.2,-0.3 -0.1,-2.5 0.5,-2.4 l 0.1,0.3 c 0.3,0 0.2,-0.8 0,-1.7 -0.2,-0.9 -0.7,-1.9 -0.7,-2.5 -0.1,0.3 -0.2,0.6 -0.4,0.9 -0.2,-0.6 -0.4,-1.2 -0.7,-1.7 l 0.3,0.3 c -1.2,-1.5 -2.6,-2.5 -4,-3.1 -1.4,-0.6 -2.7,-0.8 -4.2,-0.9 l -1.1,-0.1 -0.6,-0.1 c -0.4,0 -0.9,0 -1.3,0 -0.9,0 -1.9,0.1 -3,0.5 0.6,-0.7 -0.9,0.4 -0.9,-0.4 -1.1,-1 -2.1,0.2 -3,0.5 0,0 0,0.1 -0.1,0.1 l -1.6,-0.1 c 1,-1 -1.2,0.8 -0.3,0 -4.2,-0.7 -9.6,0 -14.5,-0.3 l 0.2,0.3 c -1.2,0 -2.8,0.3 -3.7,-0.1 -0.9,-0.4 -2,0.7 -2.4,0.7 -1,0.4 -2,-0.4 -1.5,-0.4 -1.1,0.1 -2.1,1 -3.6,0.6 -0.5,-0.8 -4.1,0.8 -4.2,-0.1 V 41 c -1.9,-0.7 -3.8,0.5 -5.9,-0.1 0,0 0,-0.1 0.1,-0.1 l -4.3,2.9 1.2,3.2 3.7,2.6 10,-0.6 8,1 2.8,-0.1 c -0.7,0.8 -1.7,1.3 -2.1,2.1 -1.4,1.8 -3.2,2.9 -4.8,4.4 v 0 c -0.2,0.3 -0.4,0.8 -0.8,0.9 0,0 0,0 0,0 l -0.2,0.2 v 0 c -0.4,0.4 -0.9,0.9 -1.5,1.1 0,0.2 -0.4,0.5 -0.5,0.7 -1.1,1.5 -2.9,2.7 -4.4,4 0,0.1 0.1,0.2 -0.1,0.3 l -0.2,-0.2 c -0.3,0.8 -1.4,1 -1.6,1.8 h -0.4 l -2.7,2.4 -0.5,1.3 -1.2,0.9 C 45.7,69.5 45.7,69.3 45.6,69 45.4,68 45.4,66.2 46.1,62.8 h 0.1 c 0,-0.2 -0.2,-0.2 0,-0.7 l -0.3,1.2 c -0.2,-0.7 -0.7,-1.3 -0.8,-2.2 0.1,-0.2 0.2,-0.3 0.3,-0.3 L 45,58.5 45.4,57.7 C 45,57 44.1,57.5 44.4,55.6 43.8,56.4 43.8,54.7 43.5,55 43.6,54.9 43.7,54.7 43.8,54.5 43.6,53.4 43,51.4 42.5,51 c 0,0 -0.2,1.1 -0.4,2.4 -0.3,1.3 -0.6,2.7 -0.9,3.3 0,-1.5 -0.1,-0.4 -0.3,-0.1 l 0.2,0.1 c 0,0.9 -0.5,1 -0.5,1.5 0,0 0.1,0 0.1,0 h -0.1 c 0.1,-0.1 0.1,0 0.2,0 0.1,0 0.2,0 0.2,0.3 h -0.1 c 0.1,0.4 0.1,1 0.1,1.3 l -0.4,0.1 c 0.8,0.6 -0.6,4.6 -0.5,5.5 -0.4,0.9 0.3,2 0.1,3.2 0,1.8 -0.5,0.9 -0.8,1.8 -0.2,1.1 0.4,-0.2 0.5,0.2 L 39.4,72 c -0.1,-0.8 -0.3,-0.3 -0.4,-0.2 0,1.2 -0.7,3 0.1,3.3 -0.3,1.6 -0.6,1.6 -0.7,2.2 0.1,-0.2 0.3,-0.7 0.4,-0.7 -0.3,0.6 0.1,0.3 0.2,0 0.3,1 -1.4,4.9 -0.6,5.1 h -0.1 c 0.6,0.2 1.2,-0.1 1.5,0.6 l -0.3,0.4 0.2,0.7 c -0.2,0.4 -0.4,0.2 -0.4,0.2 0.2,1.1 -0.2,2.6 -0.4,3.9 l 1.8,-1.3 c -0.2,0.6 -0.6,1.3 -0.8,2 -0.2,0.7 -0.3,1.3 -0.1,1.4 l -0.6,0.7 c -0.5,1.2 -0.4,1.7 -0.1,2 0.2,0.2 0.5,0.3 0.4,0.8 -0.1,0.4 -0.3,0.9 -0.3,1.5 -0.1,-0.5 -0.2,-1 -0.3,-1.4 -0.1,0.7 -0.1,1.3 -0.1,1.8 0,0.6 0,1.1 0.2,1.8 v 0 c 0,-0.1 0,-0.2 0,-0.2 l 0.1,0.2 c 0.4,0 0.9,0.7 1.6,1.6 0.6,0.8 1.4,1.2 2.4,1.7 0.6,0.3 1.3,0.6 2.3,1 0.3,-0.2 0.5,-0.4 0.7,-0.5 l 1.6,0.4 v 0.5 c -0.2,0 -0.5,0 -0.8,0 -0.3,0 -0.9,0 -1.3,-0.1 -0.9,-0.1 -2,-0.3 -2.9,-0.7 -1,-0.5 -1.9,-1.1 -2.5,-1.8 L 40,99.1 c 0.7,0.8 1.8,1.4 2.6,1.8 0.5,0.2 0.9,0.3 1.2,0.4 0.4,0.2 1.4,0.8 0.9,1 0.3,-0.1 0.6,-0.1 0.8,-0.2 1.6,0.1 2,0 2.6,0.1 0.5,0 1,0 1.4,0 0.9,0.1 1.8,0.2 3.5,0.5 l -0.3,-0.2 c 0.7,-0.1 1.4,-0.3 1.6,0.1 2.1,0.1 4.3,0.4 5.7,1 l 0.3,-0.6 c 0.4,0 1.1,0.9 1.3,0.1 l 1,-0.3 c 0.6,0 1,-0.3 1.7,0 v 0 0 c 0,0 0.1,0 0.1,0.1 0,0 0,0 0,0 1.4,0.3 0,-0.5 1.6,-0.2 0.5,0.4 0.6,-0.7 1.3,-0.6 l 0.8,0.8 c 1.4,0.5 1.6,-0.4 3.7,-0.4 1,0.3 1.4,1 0.8,1.6 0.9,-0.8 0.4,-0.5 1.6,-0.9 0.2,0.3 0.1,0.4 -0.2,0.7 1,0.4 0.6,-0.3 1.4,-0.3 0.2,-0.6 0.5,-1.5 0.8,-1.6 l -0.3,-0.2 c 0.8,-0.3 1.8,-0.5 2.7,-0.2 v 0.3 l 1,-0.2 0.1,0.4 1.5,-0.1 -0.2,-0.1 c 0.3,-0.1 1.5,-0.2 2.1,0 v 0.2 c 1.8,0.7 3.4,-0.2 5.5,-0.3 l -0.3,0.4 c 0.7,0.4 0.2,-0.7 1.1,-0.5 v 0.5 c 0.8,-0.7 1,0.1 1.5,0.4 l -0.2,-0.7 1,0.1 c 1.9,0.2 1.3,0.9 1,1.2 0.5,-0.2 0.9,-0.4 1.3,-0.6 l 0.4,0.6 c 0.4,-0.4 0.7,-0.4 1,-0.4 0.4,0 0.8,0 1.6,-0.4 0.2,0.2 -0.1,0.4 0.5,0.3 0.8,-0.6 1.4,-1.3 1.9,-2.1 -0.3,0.4 -0.7,0.9 -1.1,1.2 L 98,101 c 0.5,-0.7 0.9,-1 1.3,-1.3 0.4,-0.3 0.8,-0.5 1,-1.1 -0.1,0.3 -0.2,0.5 -0.3,0.8 0.5,-0.8 0.8,-1.2 1,-1.5 0.3,-0.3 0.5,-0.5 0.8,-1 -0.3,0.3 -0.7,0.6 -0.5,-0.2 0.1,-0.6 0.4,-0.1 0.6,-0.6 -0.5,-0.4 -0.6,-1.7 -0.3,-3 0.1,0 0.2,0.1 0.2,0.2 -0.1,-0.3 -0.2,-0.5 -0.1,-1.1 l 0.7,0.4 -0.3,-0.6 c -0.1,-0.2 -0.2,-0.2 -0.3,-0.4 0.2,-0.4 -0.3,-1.1 0.1,-1 l 0.1,0.2 0.2,-3.3 h 0.5 c -0.7,-0.3 0.3,-1.8 -0.6,-1.7 0.6,-0.1 -0.2,-1.9 0.8,-1.5 z M 92.3,49.4 c 0,-0.1 0,-0.2 0,-0.2 0.1,0 0.1,0.1 0,0.2 z m -2.4,-0.2 c -0.1,0 -0.3,0.1 -0.4,0.1 v -0.1 c 0.2,0 0.3,0 0.4,0 z M 47.6,72.3 c 0,0 0,0 0,0 0.1,-0.5 0.6,-0.4 0.7,-0.8 v 0 c -0.2,-0.3 0.7,-0.3 0.5,-0.6 0.1,-0.3 0.5,-0.2 0.7,-0.3 0,0.1 -0.1,-0.3 0.1,-0.3 0.1,0 0.5,0.1 0.5,-0.1 0,-0.2 0.3,-0.3 0.5,-0.5 v 0.1 c 0.6,-0.7 1.5,-1.2 1.9,-1.9 -0.3,-0.1 0.4,0.1 0,0 l 0.2,-0.2 c 0,0 0,0 0,0 0.2,0 0.6,0.2 0.5,-0.3 -0.2,-0.2 0.3,-0.1 0,-0.2 0.9,-0.2 0.7,-1 1.7,-1.3 h -0.1 l 0.1,-0.2 0.1,0.2 c 0,-0.2 0.4,-0.2 0.3,-0.4 v 0 c -0.2,-0.2 0.1,-0.2 0.1,-0.4 0.1,0.1 0.1,0.1 0.1,0.2 0,0 0.1,0 0.2,0 0.1,-0.5 0.6,-0.5 0.6,-0.9 l 0.2,0.1 c 0.1,-0.5 0.9,-0.4 0.9,-1 0.5,-0.4 0.9,-0.5 1.4,-0.9 0.2,-0.2 0.6,-0.5 0.5,-0.8 0.2,-0.5 0.6,-0.3 0.9,-0.6 -0.3,-0.2 0.2,-0.2 0.1,-0.4 0.2,0.3 0.2,-0.2 0.4,0 L 60.6,60.6 61,60.1 H 60.9 C 60.8,60 61,60 61,59.9 L 61.2,60 61,59.8 c 0,-0.1 0.1,-0.1 0.1,-0.1 0,0 0,0 -0.1,-0.1 0,-0.2 0.2,-0.2 0.4,0 0,-0.1 -0.1,-0.1 0,-0.2 0.1,0 0.1,0.1 0.1,0.2 0,-0.1 -0.1,-0.2 0.2,-0.3 h -0.1 c 0.2,0 0,-0.3 0.3,-0.2 l 0.2,0.2 h -0.2 0.4 c 0,-0.1 0,-0.1 -0.1,-0.1 0.2,0 0,-0.2 0.3,-0.1 L 62.4,58.9 63,59 c -0.1,-0.1 -0.3,-0.2 -0.2,-0.4 l 0.1,-0.2 0.1,0.2 c 0,-0.1 -0.2,-0.4 0.1,-0.3 L 63,58.1 c 0.1,-0.2 0.3,0.2 0.3,0 L 63.2,58 c 0.3,-0.3 0.7,-0.2 0.8,-0.6 l -0.1,-0.1 c 0,-0.1 0.2,-0.2 0.3,-0.3 v 0.1 l 0.2,-0.2 -0.1,-0.1 0.2,-0.1 -0.1,-0.1 c 0.1,-0.2 0.2,-0.3 0.4,-0.3 v 0.1 c 0,0 0.3,0.2 0.5,0.3 0.1,-0.1 0.2,0.1 0.3,-0.1 -0.1,0 -0.1,0 -0.2,-0.2 0.3,-0.1 0.1,-0.1 0.4,0 -0.3,-0.1 -0.4,-0.3 -0.3,-0.5 0.3,-0.3 0.5,-0.1 0.6,-0.4 L 66,55.3 c 0.1,-0.1 0.4,0.2 0.3,0 0.1,-0.3 0.1,0.1 0.3,-0.2 0,0 0,0 0,0 0,0 0,0 0,0 0,0 0,0 0,0 0,0 0,0 0,0 0,-0.2 0.1,-0.1 0.2,-0.2 L 67,54.8 c 0.2,0.2 0.1,-0.1 0.2,-0.2 l 0.2,0.1 c 0,-0.3 0.3,-0.7 0.5,-1 -0.1,-0.1 0.1,-0.2 0.2,-0.2 v 0.1 c 0.3,-0.6 0.4,-0.6 0.8,-1 l 0.2,0.1 c -0.2,0 -0.2,-0.3 -0.2,-0.3 0.1,-0.1 0.3,-0.2 0.4,-0.3 V 52 c -0.2,0.2 -0.6,0.5 -0.8,0.7 l -0.1,-0.1 0.1,-0.3 0.2,0.1 C 68.8,52 69,52 69.2,51.8 c 0.1,-0.1 0.2,-0.1 0.3,-0.1 v 0 c 0,0 0,0 0,0 0,0 0,0 0,0 0,-0.2 0,-0.3 0.1,-0.6 l -0.2,0.1 v -0.3 c 0,-0.2 0.3,0.3 0.4,-0.3 V 50.4 C 70,50.5 70,50 70.1,49.8 l 0.2,0.6 c 0.2,-0.2 0.3,-0.5 0.5,-0.6 0,0 -0.1,0 -0.1,-0.1 h 0.2 v -0.1 c 0.2,0 0.3,0.2 0.5,0.3 v 0 c 0.1,0.1 0.2,-0.2 0.3,-0.4 l 11.8,-0.2 1.4,-0.7 c 1.4,0.5 3,0.6 4.6,0.5 -1,2 -1.5,1.6 -1.6,1.8 H 88 c -1.2,0.7 -1.5,1.5 -2.8,2.5 l 0.1,-0.6 c -0.4,0.2 -3.6,3 -3.7,3.4 -1.3,1.7 -3.3,2.7 -4.3,4.3 -2.6,3 -5.7,5.2 -8.6,7.9 v 0 c -0.4,0.5 -0.9,1.3 -1.5,1.5 0,0 0,0 0,0.1 L 67,70.4 v 0 c -0.7,0.7 -1.6,1.5 -2.5,2 -0.1,0.3 -0.8,0.9 -0.9,1.2 -2.1,2.5 -5.1,4.7 -7.7,7.2 0,0.1 0.1,0.2 -0.2,0.5 l -0.2,-0.2 c -0.7,1.2 -2.4,1.9 -2.9,3.1 l -0.5,0.1 -4.8,4.3 -0.3,0.2 c 0,-0.2 0,-0.4 0,-0.7 0.2,-3.6 0.1,-7.3 0,-7.9 l -0.8,1.5 c -0.2,-4.3 0.3,-6.6 0,-9.8 l 0.1,0.2 z M 58.7,93 c -2.2,-0.4 -4.6,-0.4 -7,-0.4 -1.1,0 -2.2,0.1 -3.3,0.1 0.1,0 0.2,-0.1 0.2,-0.1 -0.1,0.1 -0.1,-0.4 0.3,-0.5 0.1,-0.1 0.7,0 0.8,-0.3 0.1,-0.3 0.6,-0.6 0.9,-0.9 V 91 c 1.1,-1.2 2.6,-2.2 3.4,-3.4 -0.5,-0.1 0.6,0 0.1,-0.1 l 0.4,-0.4 c 0,0 0,0 0.1,0 0.3,-0.1 0.9,0 0.9,-0.5 -0.2,-0.3 0.5,-0.3 0.1,-0.3 1.5,-0.6 1.4,-1.7 3,-2.4 h -0.1 l 0.2,-0.3 0.1,0.3 c 0,-0.3 0.7,-0.4 0.5,-0.6 h -0.1 c -0.2,-0.2 0.2,-0.4 0.2,-0.6 0.1,0.1 0.1,0.2 0.1,0.2 0,0 0.1,-0.1 0.3,-0.1 0.3,-0.7 1.1,-0.9 1.2,-1.5 h 0.3 c 0.3,-0.7 1.5,-0.9 1.7,-1.7 0.9,-0.7 1.5,-1.1 2.4,-1.7 0.4,-0.4 1.1,-0.9 1.1,-1.4 0.5,-0.8 1.1,-0.7 1.6,-1.2 -0.4,-0.2 0.3,-0.4 0.3,-0.7 0.2,0.3 0.3,-0.3 0.6,-0.2 l -0.1,-0.2 0.7,-0.8 h -0.1 c -0.1,-0.1 0.1,-0.1 0.2,-0.3 H 70 l -0.2,-0.2 c 0,-0.1 0.1,-0.1 0.2,-0.1 0,0 -0.1,0 -0.1,-0.1 0.1,-0.3 0.4,-0.4 0.6,-0.2 0.1,-0.1 -0.1,-0.2 0,-0.2 0.1,-0.1 0.1,0.1 0.1,0.2 0.1,-0.2 0,-0.3 0.4,-0.5 h -0.2 c 0.2,-0.1 0.1,-0.4 0.5,-0.4 l 0.3,0.3 -0.6,0.4 0.6,-0.1 c 0.1,-0.1 0,-0.1 -0.1,-0.2 0.3,-0.1 0.1,-0.4 0.4,-0.3 l -0.1,-0.2 h 0.3 C 72,71.4 71.7,71.3 71.9,71 l 0.2,-0.3 0.1,0.3 c 0.1,-0.2 -0.1,-0.5 0.3,-0.5 l -0.1,-0.2 c 0.2,-0.3 0.3,0.2 0.4,-0.1 l -0.2,-0.1 c 0.5,-0.5 1.2,-0.5 1.4,-1.2 V 69 c 0.1,-0.2 0.4,-0.4 0.5,-0.5 v 0.1 L 74.9,68.3 74.8,68.2 75.1,68 75,67.9 c 0.2,-0.3 0.4,-0.5 0.7,-0.6 v 0.1 c 0.1,0 0.4,0.2 0.6,0.3 0.2,-0.2 0.3,0.1 0.4,-0.2 -0.1,0 -0.2,0 -0.2,-0.2 0.4,-0.2 0.2,-0.1 0.6,-0.1 -0.3,0 -0.4,-0.4 -0.3,-0.7 0.5,-0.5 0.8,-0.3 1,-0.7 l -0.1,-0.4 c 0.2,-0.2 0.5,0.1 0.5,-0.1 0.3,-0.5 0.2,0.1 0.4,-0.3 0,0 0,0 0,0 0,0 0,0 0,-0.1 0,0 0,0 0,0 0,0 0,0 0,0 0.1,-0.3 0.3,-0.2 0.4,-0.4 l 0.3,-0.1 c 0.3,0.2 0.2,-0.2 0.3,-0.3 l 0.2,0.1 c 0.2,-0.5 0.6,-1.1 1.1,-1.6 -0.1,-0.2 0.1,-0.3 0.4,-0.4 v 0.1 c 0.7,-1 0.7,-1 1.6,-1.7 h 0.3 c -0.2,0 -0.2,-0.3 -0.1,-0.4 0.1,-0.2 0.5,-0.4 0.7,-0.6 l -0.1,-0.1 c -0.4,0.4 -1.1,0.9 -1.4,1.2 l -0.1,-0.2 0.2,-0.4 0.3,0.1 c 0.3,-0.6 0.6,-0.7 0.9,-1 C 83.8,59 84,58.9 84.1,59 v 0 c 0,0 0,0 0,0.1 0,0 0,0 0,0 0.1,-0.3 0.2,-0.5 0.3,-0.9 l -0.3,0.3 0.1,-0.4 c 0.1,-0.3 0.4,0.3 0.6,-0.5 v -0.3 c 0.2,0.1 0.5,-0.6 0.6,-1 l 0.1,0.8 c 0.3,-0.3 0.6,-0.8 0.9,-1 0,0 -0.1,0 -0.1,-0.2 l 0.2,-0.1 v -0.2 c 0.3,-0.1 0.3,0.2 0.6,0.4 v 0 c 0.3,0.2 0.8,-1.2 1.1,-1.4 0,0.1 0,0.3 0.1,0 0,0 0,0.2 0,0.3 0.2,-0.2 0.1,-0.3 0.4,-0.7 0.3,0.1 0.6,-0.5 0.8,-0.8 0,-0.1 0,-0.2 -0.2,-0.1 l 0.2,-0.5 c 0.1,-0.1 0,0.4 0.2,0.1 0.1,-0.3 -0.2,-0.2 0.2,-0.7 0.2,-0.3 0.7,-0.4 0.7,-0.8 0.2,-0.2 0.6,-1.7 1,-1.6 l -0.1,-0.1 c 0.1,-0.1 0.2,-0.2 0.3,-0.3 v 0 c 0.1,-0.1 0.1,-0.1 0.1,0 0,0 0,0 0.1,0 0,0 0,0 0,0 v 0 c 0,0 0,0 0,0 0,0 0,0 0,0 v 0 c 0,0 0,0 0,0 0,0 0,0 0,0 L 92.5,49 c 0.1,0.2 -0.3,0.4 -0.3,0.5 0,0.1 0,0.2 0.1,0.2 v 0.1 0.4 1 l 0.1,4.1 c 0.1,2.7 0.2,5.4 0.2,8.1 0.1,2.2 0.1,4.5 0.1,6.6 -0.6,0.4 -0.8,0.9 -1.6,1.5 V 71 c -0.3,0.1 -2.5,1.9 -2.5,2.2 -0.8,1.2 -2.2,1.8 -2.8,2.9 -1.7,2.1 -3.8,3.4 -5.7,5.2 v 0 c -0.3,0.4 -0.5,0.9 -1,1 0,0 0,0 0,0.1 l -0.3,0.2 v 0 c -0.5,0.5 -1,1 -1.7,1.2 0,0.2 -0.5,0.6 -0.6,0.9 -1.3,1.7 -3.4,3.1 -5.1,4.7 0,0.1 0.1,0.2 -0.1,0.3 l -0.2,-0.2 c -0.4,0.9 -1.6,1.2 -1.9,2.2 h -0.4 l -1.7,1.5 c -2.4,0.1 -5.4,0.1 -8.4,-0.2 z m 33.9,0.1 C 92.4,93.2 92.1,93 92,92.9 v -0.1 h -0.1 c -0.1,0 0.1,0 -0.5,0 -0.7,0 -1.5,0 -2.2,0 -1.5,0 -2.9,0.1 -4.4,0.1 -2.9,0.1 -5.8,0.2 -8.7,0.3 -0.8,0 -1.6,0 -2.4,0.1 0.2,-0.2 0.4,-0.5 0.9,-0.6 h -0.1 l 0.1,-0.2 0.1,0.3 c -0.1,-0.3 0.5,-0.3 0.3,-0.4 v 0 c -0.2,-0.2 0.1,-0.3 0.1,-0.4 0.1,0.1 0.1,0.2 0.1,0.2 0,0 0.1,0 0.2,0 0.1,-0.5 0.7,-0.6 0.7,-1 l 0.2,0.1 c 0.1,-0.5 1.1,-0.5 1.1,-1.2 0.6,-0.4 1.1,-0.6 1.7,-1 0.2,-0.3 0.7,-0.6 0.6,-1 0.3,-0.5 0.7,-0.4 1.1,-0.8 -0.4,-0.3 0.2,-0.3 0.1,-0.5 0.2,0.3 0.2,-0.2 0.5,-0.1 L 81.3,86.5 81.8,86 h -0.1 c -0.1,-0.1 0.1,-0.1 0.1,-0.2 l 0.3,0.1 -0.2,-0.2 c 0,-0.1 0.1,-0.1 0.1,-0.1 0,0 -0.1,0 -0.1,-0.1 0,-0.2 0.3,-0.2 0.5,-0.1 0,-0.1 -0.1,-0.2 0,-0.2 0.1,0 0.1,0.1 0.1,0.2 0,-0.2 -0.1,-0.3 0.2,-0.4 h -0.2 c 0.2,0 0,-0.3 0.4,-0.3 L 83.2,85 H 83 83.5 c 0,-0.1 -0.1,-0.1 -0.1,-0.2 0.3,0 0,-0.3 0.3,-0.1 l -0.2,-0.2 0.3,0.1 c -0.1,-0.1 -0.4,-0.2 -0.3,-0.5 l 0.1,-0.2 0.2,0.3 c 0,-0.2 -0.2,-0.5 0.1,-0.4 l -0.1,-0.2 c 0.1,-0.2 0.3,0.2 0.3,0 l -0.2,-0.1 c 0.4,-0.3 0.9,-0.3 1,-0.7 l -0.1,-0.1 c 0,-0.2 0.3,-0.3 0.3,-0.3 v 0.1 l 0.3,-0.2 -0.1,-0.1 0.2,-0.1 -0.1,-0.1 c 0.1,-0.2 0.3,-0.3 0.5,-0.4 v 0.1 c 0.1,0 0.4,0.2 0.6,0.4 0.1,-0.1 0.2,0.1 0.3,-0.1 -0.1,0 -0.2,-0.1 -0.2,-0.2 0.3,-0.1 0.1,-0.1 0.5,0 -0.3,-0.1 -0.4,-0.4 -0.3,-0.6 0.3,-0.3 0.6,-0.1 0.7,-0.4 l -0.1,-0.4 c 0.1,-0.2 0.4,0.2 0.4,0 0.2,-0.3 0.2,0.1 0.3,-0.2 0,0 0,0 0,0 0,0 0,0 0,0 0,0 0,0 0,0 0,0 0,0 0,0 0,-0.2 0.2,-0.2 0.3,-0.3 l 0.2,-0.1 c 0.3,0.2 0.1,-0.2 0.2,-0.2 l 0.2,0.1 c 0,-0.4 0.3,-0.8 0.6,-1.2 -0.1,-0.2 0.1,-0.2 0.2,-0.3 v 0.1 c 0.4,-0.7 0.4,-0.7 1,-1.2 l 0.2,0.1 c -0.2,0 -0.2,-0.3 -0.2,-0.4 0.1,-0.1 0.3,-0.2 0.5,-0.4 l -0.1,-0.1 c -0.3,0.3 -0.7,0.6 -0.9,0.8 l -0.1,-0.1 0.1,-0.3 0.3,0.1 c 0.1,-0.5 0.4,-0.5 0.5,-0.7 0.1,-0.1 0.3,-0.2 0.4,-0.1 v 0 c 0,0 0,0 0,0 0,0 0,0 0,0 0,-0.3 0,-0.4 0.1,-0.7 l -0.2,0.2 v -0.4 c 0.1,-0.2 0.4,0.3 0.4,-0.3 l -0.1,-0.3 c 0.2,0.1 0.3,-0.4 0.4,-0.7 l 0.3,0.7 c 0.1,-0.2 0.3,-0.4 0.4,-0.5 -0.1,1.6 -0.1,3.2 -0.2,4.7 -0.4,0.9 -0.2,3.8 -0.6,4.5 0.4,1.6 0.6,3.2 0.6,4.8 0,0.8 0.1,1.6 0.1,2.4 v 1.2 0.5 0.1 h -0.1 c 0,0.1 0.1,0.2 0.1,0.3 -0.1,0 -0.1,0 -0.2,-0.1 0.4,0.4 0.3,0.7 0.1,0.7 z"
   id="path15571"
   inkscape:connector-curvature="0"
   style="fill:#545352" />
	<path
   class="st3"
   d="m 45.3,60.8 v 0 c 0.3,0 0.2,-0.1 0,0 z"
   id="path15573"
   inkscape:connector-curvature="0"
   style="fill:#545352" />
	<polygon
   class="st3"
   points="38.3,87.7 38.7,87.5 38.7,87.4 "
   id="polygon15575"
   style="fill:#545352" />
	<path
   class="st3"
   d="m 38.9,71.6 c 0,-0.3 0,-0.5 -0.1,-0.7 -0.1,0.7 0,0.8 0.1,0.7 z"
   id="path15577"
   inkscape:connector-curvature="0"
   style="fill:#545352" />
	<path
   class="st3"
   d="m 44,54.5 c 0,-0.4 -0.2,-0.2 -0.3,0 0.1,0.4 0.2,0.7 0.2,0.7 -0.1,-0.2 0,-0.5 0.1,-0.7 z"
   id="path15579"
   inkscape:connector-curvature="0"
   style="fill:#545352" />
	<path
   class="st3"
   d="m 40.7,56.6 -0.2,-0.1 c 0.1,0.3 0.2,0.3 0.2,0.1 z"
   id="path15581"
   inkscape:connector-curvature="0"
   style="fill:#545352" />
	<path
   class="st3"
   d="m 76.4,67.8 c 0,0 -0.1,0 -0.1,-0.1 0,0 0,0 0,0 z"
   id="path15583"
   inkscape:connector-curvature="0"
   style="fill:#545352" />
	<path
   class="st3"
   d="m 78.7,65 c 0,0 0,0 0,0 0.1,0 0.1,0 0,0 z"
   id="path15585"
   inkscape:connector-curvature="0"
   style="fill:#545352" />
	<path
   class="st3"
   d="m 54.3,87.6 c 0,-0.1 0,-0.1 0,0 0,-0.1 0,-0.1 0,0 z"
   id="path15587"
   inkscape:connector-curvature="0"
   style="fill:#545352" />
	<path
   class="st3"
   d="m 54.3,87.5 c 0,0 0.1,-0.1 0.1,0 0,-0.1 0.1,-0.2 0.1,-0.2 -0.2,0 -0.2,0.1 -0.2,0.2 z"
   id="path15589"
   inkscape:connector-curvature="0"
   style="fill:#545352" />
	<path
   class="st3"
   d="m 81.1,62.5 c 0,0 0,0 0,0 0,0.1 0,0.1 0,0 z"
   id="path15591"
   inkscape:connector-curvature="0"
   style="fill:#545352" />
	<path
   class="st3"
   d="m 92.2,49.4 c 0,0 0,0 0,0 v 0 c 0.1,0.1 0,0 0,0 z"
   id="path15593"
   inkscape:connector-curvature="0"
   style="fill:#545352" />
	<path
   class="st3"
   d="m 84.2,59.1 c 0,0 0,-0.1 0,0 l -0.5,0.3 0.1,0.1 c 0.2,-0.2 0.4,-0.4 0.4,-0.4 z"
   id="path15595"
   inkscape:connector-curvature="0"
   style="fill:#545352" />
	<path
   class="st3"
   d="M 85.9,57.2 V 57 c 0,0 0,0 0,0 z"
   id="path15597"
   inkscape:connector-curvature="0"
   style="fill:#545352" />
	<path
   class="st3"
   d="m 90,53.3 c -0.1,0 -0.1,0.1 -0.2,0.1 0,0 0,0.1 0.2,-0.1 z"
   id="path15599"
   inkscape:connector-curvature="0"
   style="fill:#545352" />
	<path
   class="st3"
   d="m 86.6,82.2 c 0,0 -0.1,0 -0.1,-0.1 0,0 0,0 0,0 z"
   id="path15601"
   inkscape:connector-curvature="0"
   style="fill:#545352" />
	<path
   class="st3"
   d="m 88,80.2 c 0,0 0,0 0,0 0.1,0 0.1,0 0,0 z"
   id="path15603"
   inkscape:connector-curvature="0"
   style="fill:#545352" />
	<path
   class="st3"
   d="m 89.6,78.5 c 0,0 0,0 0,0 0,0 0,0.1 0,0 z"
   id="path15605"
   inkscape:connector-curvature="0"
   style="fill:#545352" />
	<path
   class="st3"
   d="m 91.5,76.1 c 0,0 0,0 0,0 l -0.4,0.2 0.1,0.1 c 0.2,-0.1 0.3,-0.2 0.3,-0.3 z"
   id="path15607"
   inkscape:connector-curvature="0"
   style="fill:#545352" />
	<path
   class="st3"
   d="m 92.6,74.9 -0.1,-0.2 c 0,0 0,0 0,0 z"
   id="path15609"
   inkscape:connector-curvature="0"
   style="fill:#545352" />
	<path
   class="st3"
   d="m 65.4,56.9 c 0,0 -0.1,0 0,0 -0.1,-0.1 -0.1,-0.1 -0.1,-0.1 z"
   id="path15611"
   inkscape:connector-curvature="0"
   style="fill:#545352" />
	<path
   class="st3"
   d="m 66.6,55.2 c 0,0 0,0 0,0 0,0 0,0 0,0 z"
   id="path15613"
   inkscape:connector-curvature="0"
   style="fill:#545352" />
	<path
   class="st3"
   d="m 52.8,67.8 c 0,0 0,0 0,0 0,0 0,0 0,0 z"
   id="path15615"
   inkscape:connector-curvature="0"
   style="fill:#545352" />
	<path
   class="st3"
   d="m 52.8,67.8 c 0,-0.1 0.1,-0.1 0,-0.2 0,0.1 0,0.1 0,0.2 0,0 0,0 0,0 z"
   id="path15617"
   inkscape:connector-curvature="0"
   style="fill:#545352" />
	<path
   class="st3"
   d="m 67.9,53.8 c 0,0 0,0 0,0 0,0 0,0 0,0 z"
   id="path15619"
   inkscape:connector-curvature="0"
   style="fill:#545352" />
	<path
   class="st3"
   d="m 69.5,51.7 c 0,0 0,0 0,0 l -0.3,0.2 0.1,0.1 c 0.1,-0.1 0.2,-0.2 0.2,-0.3 z"
   id="path15621"
   inkscape:connector-curvature="0"
   style="fill:#545352" />
	<path
   class="st3"
   d="m 70.4,50.7 -0.1,-0.1 c 0,0 0,0 0,0 z"
   id="path15623"
   inkscape:connector-curvature="0"
   style="fill:#545352" />
</g>

</svg>